<?xml version="1.0" encoding="UTF-8"?>
<task maker="ccr-plus" score="100" time="0.6379999999999999" version="1.1.0" state="N">
    <subtask score="10">
        <point ratio="1" note="时间: 0.00s 内存: 3.96MB 正确" state="A"/>
    </subtask>
    <subtask score="10">
        <point ratio="1" note="时间: 0.00s 内存: 3.96MB 正确" state="A"/>
    </subtask>
    <subtask score="10">
        <point ratio="1" note="时间: 0.08s 内存: 4.23MB 正确" state="A"/>
    </subtask>
    <subtask score="10">
        <point ratio="1" note="时间: 0.00s 内存: 3.96MB 正确" state="A"/>
    </subtask>
    <subtask score="10">
        <point ratio="1" note="时间: 0.08s 内存: 4.41MB 正确" state="A"/>
    </subtask>
    <subtask score="10">
        <point ratio="1" note="时间: 0.01s 内存: 3.96MB 正确" state="A"/>
    </subtask>
    <subtask score="10">
        <point ratio="1" note="时间: 0.06s 内存: 4.00MB 正确" state="A"/>
    </subtask>
    <subtask score="10">
        <point ratio="1" note="时间: 0.00s 内存: 3.96MB 正确" state="A"/>
    </subtask>
    <subtask score="10">
        <point ratio="1" note="时间: 0.22s 内存: 5.96MB 正确" state="A"/>
    </subtask>
    <subtask score="10">
        <point ratio="1" note="时间: 0.19s 内存: 5.60MB 正确" state="A"/>
    </subtask>
</task>
