<?xml version="1.0" encoding="UTF-8"?>
<task maker="ccr-plus" version="1.1.0" score="20" state="N" time="5.029999999999999">
    <subtask score="5">
        <point ratio="0.5" note="时间: 0.00s 内存: 194.74MB 可行解错误" state="P"/>
    </subtask>
    <subtask score="5">
        <point ratio="0.5" note="时间: 0.01s 内存: 194.74MB 可行解错误" state="P"/>
    </subtask>
    <subtask score="0">
        <point ratio="0" note="超过时间限制" state="T"/>
    </subtask>
    <subtask score="5">
        <point ratio="0.5" note="时间: 0.01s 内存: 194.75MB 可行解错误" state="P"/>
    </subtask>
    <subtask score="0">
        <point ratio="0" note="超过时间限制" state="T"/>
    </subtask>
    <subtask score="0">
        <point ratio="0" note="超过时间限制" state="T"/>
    </subtask>
    <subtask score="0">
        <point ratio="0" note="超过时间限制" state="T"/>
    </subtask>
    <subtask score="5">
        <point ratio="0.5" note="时间: 0.00s 内存: 194.74MB 可行解错误" state="P"/>
    </subtask>
    <subtask score="0">
        <point ratio="0" note="超过时间限制" state="T"/>
    </subtask>
    <subtask score="0">
        <point ratio="0" note="运行时错误: 3221225477" state="R"/>
    </subtask>
</task>
