<?xml version="1.0" encoding="UTF-8"?>
<task maker="ccr-plus" time="10" score="0" version="1.1.0" state="N">
    <subtask score="0">
        <point note="超过时间限制" ratio="0" state="T"/>
    </subtask>
    <subtask score="0">
        <point note="超过时间限制" ratio="0" state="T"/>
    </subtask>
    <subtask score="0">
        <point note="超过时间限制" ratio="0" state="T"/>
    </subtask>
    <subtask score="0">
        <point note="超过时间限制" ratio="0" state="T"/>
    </subtask>
    <subtask score="0">
        <point note="超过时间限制" ratio="0" state="T"/>
    </subtask>
    <subtask score="0">
        <point note="超过时间限制" ratio="0" state="T"/>
    </subtask>
    <subtask score="0">
        <point note="超过时间限制" ratio="0" state="T"/>
    </subtask>
    <subtask score="0">
        <point note="超过时间限制" ratio="0" state="T"/>
    </subtask>
    <subtask score="0">
        <point note="超过时间限制" ratio="0" state="T"/>
    </subtask>
    <subtask score="0">
        <point note="超过时间限制" ratio="0" state="T"/>
    </subtask>
</task>
