<?xml version="1.0" encoding="UTF-8"?>
<task maker="ccr-plus" time="1.215" score="55" version="1.1.0" state="N">
    <subtask score="10">
        <point note="时间: 0.00s 内存: 469.69MB 正确" ratio="1" state="A"/>
    </subtask>
    <subtask score="10">
        <point note="时间: 0.00s 内存: 469.68MB 正确" ratio="1" state="A"/>
    </subtask>
    <subtask score="10">
        <point note="时间: 0.22s 内存: 469.68MB 正确" ratio="1" state="A"/>
    </subtask>
    <subtask score="10">
        <point note="时间: 0.00s 内存: 469.68MB 正确" ratio="1" state="A"/>
    </subtask>
    <subtask score="10">
        <point note="时间: 0.25s 内存: 469.68MB 正确" ratio="1" state="A"/>
    </subtask>
    <subtask score="0">
        <point note="答案错误" ratio="0" state="W"/>
    </subtask>
    <subtask score="0">
        <point note="答案错误" ratio="0" state="W"/>
    </subtask>
    <subtask score="5">
        <point note="时间: 0.00s 内存: 469.69MB 可行解错误" ratio="0.5" state="P"/>
    </subtask>
    <subtask score="0">
        <point note="答案错误" ratio="0" state="W"/>
    </subtask>
    <subtask score="0">
        <point note="答案错误" ratio="0" state="W"/>
    </subtask>
</task>
