<?xml version="1.0" encoding="UTF-8"?>
<task score="40" version="1.1.0" state="N" time="5.122999999999999" maker="ccr-plus">
    <subtask score="10">
        <point ratio="1" state="A" note="时间: 0.00s 内存: 2.94MB 正确"/>
    </subtask>
    <subtask score="10">
        <point ratio="1" state="A" note="时间: 0.01s 内存: 2.94MB 正确"/>
    </subtask>
    <subtask score="0">
        <point ratio="0" state="T" note="超过时间限制"/>
    </subtask>
    <subtask score="10">
        <point ratio="1" state="A" note="时间: 0.01s 内存: 2.94MB 正确"/>
    </subtask>
    <subtask score="0">
        <point ratio="0" state="T" note="超过时间限制"/>
    </subtask>
    <subtask score="0">
        <point ratio="0" state="W" note="答案错误"/>
    </subtask>
    <subtask score="0">
        <point ratio="0" state="T" note="超过时间限制"/>
    </subtask>
    <subtask score="10">
        <point ratio="1" state="A" note="时间: 0.00s 内存: 2.95MB 正确"/>
    </subtask>
    <subtask score="0">
        <point ratio="0" state="T" note="超过时间限制"/>
    </subtask>
    <subtask score="0">
        <point ratio="0" state="T" note="超过时间限制"/>
    </subtask>
</task>
