<?xml version="1.0" encoding="UTF-8"?>
<task score="0" version="1.1.0" state="N" time="1" maker="ccr-plus">
    <subtask score="0">
        <point ratio="0" state="R" note="运行时错误: 3221225477"/>
    </subtask>
    <subtask score="0">
        <point ratio="0" state="R" note="运行时错误: 3221225477"/>
    </subtask>
    <subtask score="0">
        <point ratio="0" state="R" note="运行时错误: 3221225477"/>
    </subtask>
    <subtask score="0">
        <point ratio="0" state="R" note="运行时错误: 3221225477"/>
    </subtask>
    <subtask score="0">
        <point ratio="0" state="T" note="超过时间限制"/>
    </subtask>
    <subtask score="0">
        <point ratio="0" state="R" note="运行时错误: 3221225477"/>
    </subtask>
    <subtask score="0">
        <point ratio="0" state="R" note="运行时错误: 3221225477"/>
    </subtask>
    <subtask score="0">
        <point ratio="0" state="R" note="运行时错误: 3221225477"/>
    </subtask>
    <subtask score="0">
        <point ratio="0" state="R" note="运行时错误: 3221225477"/>
    </subtask>
    <subtask score="0">
        <point ratio="0" state="R" note="运行时错误: 3221225477"/>
    </subtask>
</task>
