<?xml version="1.0" encoding="UTF-8"?>
<task score="15" version="1.1.0" state="N" time="0.637" maker="ccr-plus">
    <subtask score="5">
        <point ratio="0.5" state="P" note="时间: 0.00s 内存: 1.09MB 可行解错误"/>
    </subtask>
    <subtask score="5">
        <point ratio="0.5" state="P" note="时间: 0.00s 内存: 1.09MB 可行解错误"/>
    </subtask>
    <subtask score="5">
        <point ratio="0.5" state="P" note="时间: 0.12s 内存: 1.36MB 可行解错误"/>
    </subtask>
    <subtask score="0">
        <point ratio="0" state="W" note="答案错误"/>
    </subtask>
    <subtask score="0">
        <point ratio="0" state="W" note="答案错误"/>
    </subtask>
    <subtask score="0">
        <point ratio="0" state="W" note="答案错误"/>
    </subtask>
    <subtask score="0">
        <point ratio="0" state="W" note="答案错误"/>
    </subtask>
    <subtask score="0">
        <point ratio="0" state="W" note="答案错误"/>
    </subtask>
    <subtask score="0">
        <point ratio="0" state="W" note="答案错误"/>
    </subtask>
    <subtask score="0">
        <point ratio="0" state="W" note="答案错误"/>
    </subtask>
</task>
