<?xml version="1.0" encoding="UTF-8"?>
<task score="0" version="1.1.0" state="N" time="2.29" maker="ccr-plus">
    <subtask score="0">
        <point ratio="0" state="W" note="答案错误"/>
    </subtask>
    <subtask score="0">
        <point ratio="0" state="W" note="答案错误"/>
    </subtask>
    <subtask score="0">
        <point ratio="0" state="W" note="答案错误"/>
    </subtask>
    <subtask score="0">
        <point ratio="0" state="W" note="答案错误"/>
    </subtask>
    <subtask score="0">
        <point ratio="0" state="W" note="答案错误"/>
    </subtask>
    <subtask score="0">
        <point ratio="0" state="W" note="答案错误"/>
    </subtask>
    <subtask score="0">
        <point ratio="0" state="W" note="答案错误"/>
    </subtask>
    <subtask score="0">
        <point ratio="0" state="W" note="答案错误"/>
    </subtask>
    <subtask score="0">
        <point ratio="0" state="W" note="答案错误"/>
    </subtask>
    <subtask score="0">
        <point ratio="0" state="W" note="答案错误"/>
    </subtask>
</task>
