<?xml version="1.0" encoding="UTF-8"?>
<task score="20" version="1.1.0" state="N" time="5.015000000000001" maker="ccr-plus">
    <subtask score="10">
        <point ratio="1" state="A" note="时间: 0.00s 内存: 13.27MB 正确"/>
    </subtask>
    <subtask score="10">
        <point ratio="1" state="A" note="时间: 0.00s 内存: 13.27MB 正确"/>
    </subtask>
    <subtask score="0">
        <point ratio="0" state="T" note="超过时间限制"/>
    </subtask>
    <subtask score="0">
        <point ratio="0" state="W" note="答案错误"/>
    </subtask>
    <subtask score="0">
        <point ratio="0" state="T" note="超过时间限制"/>
    </subtask>
    <subtask score="0">
        <point ratio="0" state="W" note="答案错误"/>
    </subtask>
    <subtask score="0">
        <point ratio="0" state="T" note="超过时间限制"/>
    </subtask>
    <subtask score="0">
        <point ratio="0" state="W" note="答案错误"/>
    </subtask>
    <subtask score="0">
        <point ratio="0" state="T" note="超过时间限制"/>
    </subtask>
    <subtask score="0">
        <point ratio="0" state="T" note="超过时间限制"/>
    </subtask>
</task>
