<?xml version="1.0" encoding="UTF-8"?>
<task state="N" score="100" version="1.1.0" maker="ccr-plus" time="4.545">
    <subtask score="20">
        <point note="时间: 0.01s 内存: 2.44MB" state="A" ratio="1"/>
    </subtask>
    <subtask score="40">
        <point note="时间: 2.61s 内存: 2.77MB" state="A" ratio="1"/>
    </subtask>
    <subtask score="40">
        <point note="时间: 1.92s 内存: 764.96MB" state="A" ratio="1"/>
    </subtask>
</task>
