<?xml version="1.0" encoding="UTF-8"?>
<task time="0.031" score="20" maker="ccr-plus" version="1.1.0" state="N">
    <subtask score="20">
        <point ratio="1" note="时间: 0.03s 内存: 1.89MB" state="A"/>
    </subtask>
    <subtask score="0">
        <point ratio="0" note="运行时错误: 3221225477" state="R"/>
    </subtask>
    <subtask score="0">
        <point ratio="0" note="运行时错误: 3221225477" state="R"/>
    </subtask>
</task>
