<?xml version="1.0" encoding="UTF-8"?>
<task maker="ccr-plus" time="10.015" score="20" version="1.1.0" state="N">
    <subtask score="20">
        <point note="时间: 0.01s 内存: 1.38MB" ratio="1" state="A"/>
    </subtask>
    <subtask score="0">
        <point note="超过时间限制" ratio="0" state="T"/>
    </subtask>
    <subtask score="0">
        <point note="超过时间限制" ratio="0" state="T"/>
    </subtask>
</task>
