<?xml version="1.0" encoding="UTF-8"?>
<task score="0" version="1.1.0" state="C" time="0" maker="ccr-plus">
    <note>编译错误:
challenge.cpp:6:1: error: expected initializer before 'float'&#xd;
 float readNext(void)&#xd;
 ^&#xd;
</note>
</task>
