<?xml version="1.0" encoding="UTF-8"?>
<task score="20" version="1.1.0" state="N" time="0.03" maker="ccr-plus">
    <subtask score="20">
        <point ratio="1" state="A" note="时间: 0.01s 内存: 2.55MB"/>
    </subtask>
    <subtask score="0">
        <point ratio="0" state="W" note="第1行 标准输出:&quot;-292510754&quot; 选手输出:&quot;-196848806&quot;"/>
    </subtask>
    <subtask score="0">
        <point ratio="0" state="R" note="运行时错误: 3221225477"/>
    </subtask>
</task>
