<?xml version="1.0" encoding="UTF-8"?>
<task score="20" version="1.1.0" state="N" time="5.031" maker="ccr-plus">
    <subtask score="20">
        <point ratio="1" state="A" note="时间: 0.03s 内存: 2.29MB"/>
    </subtask>
    <subtask score="0">
        <point ratio="0" state="M" note="超过内存限制"/>
    </subtask>
    <subtask score="0">
        <point ratio="0" state="T" note="超过时间限制"/>
    </subtask>
</task>
