<?xml version="1.0" encoding="UTF-8"?>
<task score="100" version="1.1.0" state="N" time="7.44" maker="ccr-plus">
    <subtask score="20">
        <point ratio="1" state="A" note="时间: 0.01s 内存: 1.85MB"/>
    </subtask>
    <subtask score="40">
        <point ratio="1" state="A" note="时间: 3.98s 内存: 2.60MB"/>
    </subtask>
    <subtask score="40">
        <point ratio="1" state="A" note="时间: 3.45s 内存: 764.75MB"/>
    </subtask>
</task>
