<?xml version="1.0" encoding="UTF-8"?>
<task maker="ccr-plus" time="0.9530000000000001" score="100" version="1.1.0" state="N">
    <subtask score="33">
        <point note="时间: 0.00s 内存: 1.91MB" ratio="1" state="A"/>
    </subtask>
    <subtask score="33">
        <point note="时间: 0.50s 内存: 68.61MB" ratio="1" state="A"/>
    </subtask>
    <subtask score="34">
        <point note="时间: 0.45s 内存: 72.80MB" ratio="1" state="A"/>
    </subtask>
</task>
