<?xml version="1.0" encoding="UTF-8"?>
<task maker="ccr-plus" time="0.765" score="100" version="1.1.0" state="N">
    <subtask score="33">
        <point note="时间: 0.00s 内存: 1.79MB" ratio="1" state="A"/>
    </subtask>
    <subtask score="33">
        <point note="时间: 0.39s 内存: 12.86MB" ratio="1" state="A"/>
    </subtask>
    <subtask score="34">
        <point note="时间: 0.38s 内存: 12.85MB" ratio="1" state="A"/>
    </subtask>
</task>
