<?xml version="1.0" encoding="UTF-8"?>
<task maker="ccr-plus" time="1.359" score="100" version="1.1.0" state="N">
    <subtask score="33">
        <point note="时间: 0.00s 内存: 1.84MB" ratio="1" state="A"/>
    </subtask>
    <subtask score="33">
        <point note="时间: 0.73s 内存: 36.23MB" ratio="1" state="A"/>
    </subtask>
    <subtask score="34">
        <point note="时间: 0.63s 内存: 36.23MB" ratio="1" state="A"/>
    </subtask>
</task>
