<?xml version="1.0" encoding="UTF-8"?>
<task maker="ccr-plus" time="0.9370000000000001" score="100" version="1.1.0" state="N">
    <subtask score="33">
        <point note="时间: 0.00s 内存: 1.88MB" ratio="1" state="A"/>
    </subtask>
    <subtask score="33">
        <point note="时间: 0.48s 内存: 13.72MB" ratio="1" state="A"/>
    </subtask>
    <subtask score="34">
        <point note="时间: 0.45s 内存: 11.27MB" ratio="1" state="A"/>
    </subtask>
</task>
