<?xml version="1.0" encoding="UTF-8"?>
<task state="N" time="0.015" maker="ccr-plus" version="1.1.0" score="100">
    <subtask score="5">
        <point ratio="1" state="A" note="时间: 0.00s 内存: 0.31MB OK"/>
    </subtask>
    <subtask score="5">
        <point ratio="1" state="A" note="时间: 0.00s 内存: 0.30MB OK"/>
    </subtask>
    <subtask score="5">
        <point ratio="1" state="A" note="时间: 0.00s 内存: 0.31MB OK"/>
    </subtask>
    <subtask score="5">
        <point ratio="1" state="A" note="时间: 0.00s 内存: 0.30MB OK"/>
    </subtask>
    <subtask score="5">
        <point ratio="1" state="A" note="时间: 0.00s 内存: 0.31MB OK"/>
    </subtask>
    <subtask score="5">
        <point ratio="1" state="A" note="时间: 0.00s 内存: 0.31MB OK"/>
    </subtask>
    <subtask score="5">
        <point ratio="1" state="A" note="时间: 0.00s 内存: 0.31MB OK"/>
    </subtask>
    <subtask score="5">
        <point ratio="1" state="A" note="时间: 0.00s 内存: 0.31MB OK"/>
    </subtask>
    <subtask score="5">
        <point ratio="1" state="A" note="时间: 0.00s 内存: 0.31MB OK"/>
    </subtask>
    <subtask score="5">
        <point ratio="1" state="A" note="时间: 0.00s 内存: 0.31MB OK"/>
    </subtask>
    <subtask score="5">
        <point ratio="1" state="A" note="时间: 0.00s 内存: 0.31MB OK"/>
    </subtask>
    <subtask score="5">
        <point ratio="1" state="A" note="时间: 0.00s 内存: 0.31MB OK"/>
    </subtask>
    <subtask score="5">
        <point ratio="1" state="A" note="时间: 0.00s 内存: 0.31MB OK"/>
    </subtask>
    <subtask score="5">
        <point ratio="1" state="A" note="时间: 0.00s 内存: 0.31MB OK"/>
    </subtask>
    <subtask score="5">
        <point ratio="1" state="A" note="时间: 0.00s 内存: 0.31MB OK"/>
    </subtask>
    <subtask score="5">
        <point ratio="1" state="A" note="时间: 0.00s 内存: 0.31MB OK"/>
    </subtask>
    <subtask score="5">
        <point ratio="1" state="A" note="时间: 0.00s 内存: 0.31MB OK"/>
    </subtask>
    <subtask score="5">
        <point ratio="1" state="A" note="时间: 0.00s 内存: 0.31MB OK"/>
    </subtask>
    <subtask score="5">
        <point ratio="1" state="A" note="时间: 0.01s 内存: 0.31MB OK"/>
    </subtask>
    <subtask score="5">
        <point ratio="1" state="A" note="时间: 0.00s 内存: 0.31MB OK"/>
    </subtask>
</task>
