<?xml version="1.0" encoding="UTF-8"?>
<task state="N" maker="ccr-plus" version="1.1.0" time="2.759" score="100">
    <subtask score="10">
        <point ratio="1" note="时间: 0.37s 内存: 16.18MB" state="A"/>
    </subtask>
    <subtask score="10">
        <point ratio="1" note="时间: 0.00s 内存: 7.14MB" state="A"/>
    </subtask>
    <subtask score="10">
        <point ratio="1" note="时间: 0.00s 内存: 7.15MB" state="A"/>
    </subtask>
    <subtask score="10">
        <point ratio="1" note="时间: 0.00s 内存: 7.14MB" state="A"/>
    </subtask>
    <subtask score="10">
        <point ratio="1" note="时间: 0.00s 内存: 7.15MB" state="A"/>
    </subtask>
    <subtask score="10">
        <point ratio="1" note="时间: 0.00s 内存: 7.14MB" state="A"/>
    </subtask>
    <subtask score="10">
        <point ratio="1" note="时间: 0.64s 内存: 16.18MB" state="A"/>
    </subtask>
    <subtask score="10">
        <point ratio="1" note="时间: 0.45s 内存: 7.90MB" state="A"/>
    </subtask>
    <subtask score="10">
        <point ratio="1" note="时间: 0.59s 内存: 7.90MB" state="A"/>
    </subtask>
    <subtask score="10">
        <point ratio="1" note="时间: 0.70s 内存: 8.65MB" state="A"/>
    </subtask>
</task>
