<?xml version="1.0" encoding="UTF-8"?>
<task state="N" maker="ccr-plus" version="1.1.0" time="0.591" score="100">
    <subtask score="10">
        <point ratio="1" note="时间: 0.00s 内存: 4.14MB" state="A"/>
    </subtask>
    <subtask score="10">
        <point ratio="1" note="时间: 0.00s 内存: 4.14MB" state="A"/>
    </subtask>
    <subtask score="10">
        <point ratio="1" note="时间: 0.00s 内存: 4.14MB" state="A"/>
    </subtask>
    <subtask score="10">
        <point ratio="1" note="时间: 0.00s 内存: 4.24MB" state="A"/>
    </subtask>
    <subtask score="10">
        <point ratio="1" note="时间: 0.00s 内存: 4.23MB" state="A"/>
    </subtask>
    <subtask score="10">
        <point ratio="1" note="时间: 0.00s 内存: 4.23MB" state="A"/>
    </subtask>
    <subtask score="10">
        <point ratio="1" note="时间: 0.03s 内存: 4.86MB" state="A"/>
    </subtask>
    <subtask score="10">
        <point ratio="1" note="时间: 0.16s 内存: 6.88MB" state="A"/>
    </subtask>
    <subtask score="10">
        <point ratio="1" note="时间: 0.20s 内存: 7.33MB" state="A"/>
    </subtask>
    <subtask score="10">
        <point ratio="1" note="时间: 0.20s 内存: 7.33MB" state="A"/>
    </subtask>
</task>
