<?xml version="1.0" encoding="UTF-8"?>
<task state="N" maker="ccr-plus" version="1.1.0" time="1.715" score="37">
    <subtask score="3">
        <point ratio="0.3" note="时间: 0.00s 内存: 2.93MB 部分正确" state="P"/>
    </subtask>
    <subtask score="3">
        <point ratio="0.3" note="时间: 0.00s 内存: 2.93MB 部分正确" state="P"/>
    </subtask>
    <subtask score="3">
        <point ratio="0.3" note="时间: 0.00s 内存: 2.93MB 部分正确" state="P"/>
    </subtask>
    <subtask score="3">
        <point ratio="0.3" note="时间: 0.00s 内存: 3.00MB 部分正确" state="P"/>
    </subtask>
    <subtask score="3">
        <point ratio="0.3" note="时间: 0.00s 内存: 3.00MB 部分正确" state="P"/>
    </subtask>
    <subtask score="3">
        <point ratio="0.3" note="时间: 0.00s 内存: 3.00MB 部分正确" state="P"/>
    </subtask>
    <subtask score="10">
        <point ratio="1" note="时间: 0.12s 内存: 3.64MB" state="A"/>
    </subtask>
    <subtask score="3">
        <point ratio="0.3" note="时间: 0.42s 内存: 3.70MB 部分正确" state="P"/>
    </subtask>
    <subtask score="3">
        <point ratio="0.3" note="时间: 0.55s 内存: 3.95MB 部分正确" state="P"/>
    </subtask>
    <subtask score="3">
        <point ratio="0.3" note="时间: 0.62s 内存: 4.15MB 部分正确" state="P"/>
    </subtask>
</task>
