<?xml version="1.0" encoding="UTF-8"?>
<task state="N" maker="ccr-plus" version="1.1.0" time="3.043" score="18">
    <subtask score="3">
        <point ratio="0.3" note="时间: 0.00s 内存: 19.50MB 部分正确" state="P"/>
    </subtask>
    <subtask score="3">
        <point ratio="0.3" note="时间: 0.00s 内存: 19.50MB 部分正确" state="P"/>
    </subtask>
    <subtask score="3">
        <point ratio="0.3" note="时间: 0.00s 内存: 19.50MB 部分正确" state="P"/>
    </subtask>
    <subtask score="3">
        <point ratio="0.3" note="时间: 0.47s 内存: 19.50MB 部分正确" state="P"/>
    </subtask>
    <subtask score="3">
        <point ratio="0.3" note="时间: 0.76s 内存: 19.50MB 部分正确" state="P"/>
    </subtask>
    <subtask score="3">
        <point ratio="0.3" note="时间: 0.81s 内存: 19.50MB 部分正确" state="P"/>
    </subtask>
    <subtask score="0">
        <point ratio="0" note="超过时间限制" state="T"/>
    </subtask>
    <subtask score="0">
        <point ratio="0" note="运行时错误: 3221225477" state="R"/>
    </subtask>
    <subtask score="0">
        <point ratio="0" note="运行时错误: 3221225477" state="R"/>
    </subtask>
    <subtask score="0">
        <point ratio="0" note="运行时错误: 3221225477" state="R"/>
    </subtask>
</task>
