<?xml version="1.0" encoding="UTF-8"?>
<task state="N" maker="ccr-plus" version="1.1.0" time="0.7010000000000001" score="100">
    <subtask score="10">
        <point ratio="1" note="时间: 0.00s 内存: 8.10MB" state="A"/>
    </subtask>
    <subtask score="10">
        <point ratio="1" note="时间: 0.00s 内存: 8.16MB" state="A"/>
    </subtask>
    <subtask score="10">
        <point ratio="1" note="时间: 0.00s 内存: 8.16MB" state="A"/>
    </subtask>
    <subtask score="10">
        <point ratio="1" note="时间: 0.00s 内存: 8.16MB" state="A"/>
    </subtask>
    <subtask score="10">
        <point ratio="1" note="时间: 0.00s 内存: 8.16MB" state="A"/>
    </subtask>
    <subtask score="10">
        <point ratio="1" note="时间: 0.00s 内存: 8.16MB" state="A"/>
    </subtask>
    <subtask score="10">
        <point ratio="1" note="时间: 0.06s 内存: 8.16MB" state="A"/>
    </subtask>
    <subtask score="10">
        <point ratio="1" note="时间: 0.16s 内存: 8.16MB" state="A"/>
    </subtask>
    <subtask score="10">
        <point ratio="1" note="时间: 0.23s 内存: 8.16MB" state="A"/>
    </subtask>
    <subtask score="10">
        <point ratio="1" note="时间: 0.25s 内存: 8.16MB" state="A"/>
    </subtask>
</task>
