<?xml version="1.0" encoding="UTF-8"?>
<task state="N" maker="ccr-plus" version="1.1.0" time="0.792" score="60">
    <subtask score="10">
        <point ratio="1" note="时间: 0.00s 内存: 97.56MB" state="A"/>
    </subtask>
    <subtask score="10">
        <point ratio="1" note="时间: 0.00s 内存: 97.55MB" state="A"/>
    </subtask>
    <subtask score="10">
        <point ratio="1" note="时间: 0.00s 内存: 97.56MB" state="A"/>
    </subtask>
    <subtask score="10">
        <point ratio="1" note="时间: 0.01s 内存: 97.57MB" state="A"/>
    </subtask>
    <subtask score="10">
        <point ratio="1" note="时间: 0.03s 内存: 97.57MB" state="A"/>
    </subtask>
    <subtask score="10">
        <point ratio="1" note="时间: 0.03s 内存: 97.57MB" state="A"/>
    </subtask>
    <subtask score="0">
        <point ratio="0" note="答案错误" state="W"/>
    </subtask>
    <subtask score="0">
        <point ratio="0" note="答案错误" state="W"/>
    </subtask>
    <subtask score="0">
        <point ratio="0" note="答案错误" state="W"/>
    </subtask>
    <subtask score="0">
        <point ratio="0" note="答案错误" state="W"/>
    </subtask>
</task>
