<?xml version="1.0" encoding="UTF-8"?>
<task state="N" maker="ccr-plus" version="1.1.0" time="1.667" score="100">
    <subtask score="10">
        <point ratio="1" note="时间: 0.00s 内存: 41.54MB" state="A"/>
    </subtask>
    <subtask score="10">
        <point ratio="1" note="时间: 0.00s 内存: 41.54MB" state="A"/>
    </subtask>
    <subtask score="10">
        <point ratio="1" note="时间: 0.00s 内存: 41.54MB" state="A"/>
    </subtask>
    <subtask score="10">
        <point ratio="1" note="时间: 0.01s 内存: 41.54MB" state="A"/>
    </subtask>
    <subtask score="10">
        <point ratio="1" note="时间: 0.00s 内存: 41.54MB" state="A"/>
    </subtask>
    <subtask score="10">
        <point ratio="1" note="时间: 0.00s 内存: 41.54MB" state="A"/>
    </subtask>
    <subtask score="10">
        <point ratio="1" note="时间: 0.06s 内存: 42.29MB" state="A"/>
    </subtask>
    <subtask score="10">
        <point ratio="1" note="时间: 0.44s 内存: 43.04MB" state="A"/>
    </subtask>
    <subtask score="10">
        <point ratio="1" note="时间: 0.53s 内存: 43.80MB" state="A"/>
    </subtask>
    <subtask score="10">
        <point ratio="1" note="时间: 0.62s 内存: 43.80MB" state="A"/>
    </subtask>
</task>
