<?xml version="1.0" encoding="UTF-8"?>
<task state="N" maker="ccr-plus" version="1.1.0" time="4.342000000000001" score="60">
    <subtask score="10">
        <point ratio="1" note="时间: 0.00s 内存: 98.74MB" state="A"/>
    </subtask>
    <subtask score="10">
        <point ratio="1" note="时间: 0.00s 内存: 98.74MB" state="A"/>
    </subtask>
    <subtask score="10">
        <point ratio="1" note="时间: 0.01s 内存: 98.74MB" state="A"/>
    </subtask>
    <subtask score="10">
        <point ratio="1" note="时间: 0.08s 内存: 98.75MB" state="A"/>
    </subtask>
    <subtask score="10">
        <point ratio="1" note="时间: 0.11s 内存: 98.75MB" state="A"/>
    </subtask>
    <subtask score="10">
        <point ratio="1" note="时间: 0.14s 内存: 98.75MB" state="A"/>
    </subtask>
    <subtask score="0">
        <point ratio="0" note="超过时间限制" state="T"/>
    </subtask>
    <subtask score="0">
        <point ratio="0" note="超过时间限制" state="T"/>
    </subtask>
    <subtask score="0">
        <point ratio="0" note="超过时间限制" state="T"/>
    </subtask>
    <subtask score="0">
        <point ratio="0" note="超过时间限制" state="T"/>
    </subtask>
</task>
