<?xml version="1.0" encoding="UTF-8"?>
<task state="N" maker="ccr-plus" version="1.1.0" time="4.061" score="22">
    <subtask score="10">
        <point ratio="1" note="时间: 0.00s 内存: 111.11MB" state="A"/>
    </subtask>
    <subtask score="0">
        <point ratio="0" note="答案错误" state="W"/>
    </subtask>
    <subtask score="3">
        <point ratio="0.3" note="时间: 0.00s 内存: 111.11MB 部分正确" state="P"/>
    </subtask>
    <subtask score="3">
        <point ratio="0.3" note="时间: 0.01s 内存: 111.11MB 部分正确" state="P"/>
    </subtask>
    <subtask score="3">
        <point ratio="0.3" note="时间: 0.01s 内存: 111.11MB 部分正确" state="P"/>
    </subtask>
    <subtask score="3">
        <point ratio="0.3" note="时间: 0.03s 内存: 111.11MB 部分正确" state="P"/>
    </subtask>
    <subtask score="0">
        <point ratio="0" note="超过时间限制" state="T"/>
    </subtask>
    <subtask score="0">
        <point ratio="0" note="超过时间限制" state="T"/>
    </subtask>
    <subtask score="0">
        <point ratio="0" note="超过时间限制" state="T"/>
    </subtask>
    <subtask score="0">
        <point ratio="0" note="超过时间限制" state="T"/>
    </subtask>
</task>
