<?xml version="1.0" encoding="UTF-8"?>
<task state="N" maker="ccr-plus" version="1.1.0" time="1.684" score="90">
    <subtask score="10">
        <point ratio="1" note="时间: 0.00s 内存: 29.31MB" state="A"/>
    </subtask>
    <subtask score="10">
        <point ratio="1" note="时间: 0.00s 内存: 29.32MB" state="A"/>
    </subtask>
    <subtask score="10">
        <point ratio="1" note="时间: 0.00s 内存: 29.31MB" state="A"/>
    </subtask>
    <subtask score="10">
        <point ratio="1" note="时间: 0.00s 内存: 29.31MB" state="A"/>
    </subtask>
    <subtask score="10">
        <point ratio="1" note="时间: 0.00s 内存: 29.32MB" state="A"/>
    </subtask>
    <subtask score="10">
        <point ratio="1" note="时间: 0.00s 内存: 29.31MB" state="A"/>
    </subtask>
    <subtask score="0">
        <point ratio="0" note="答案错误" state="W"/>
    </subtask>
    <subtask score="10">
        <point ratio="1" note="时间: 0.45s 内存: 29.31MB" state="A"/>
    </subtask>
    <subtask score="10">
        <point ratio="1" note="时间: 0.55s 内存: 29.32MB" state="A"/>
    </subtask>
    <subtask score="10">
        <point ratio="1" note="时间: 0.62s 内存: 29.31MB" state="A"/>
    </subtask>
</task>
