<?xml version="1.0" encoding="UTF-8"?>
<task state="N" maker="ccr-plus" version="1.1.0" time="0.384" score="15">
    <subtask score="5">
        <point ratio="1" note="时间: 0.00s 内存: 11.43MB" state="A"/>
    </subtask>
    <subtask score="0">
        <point ratio="0" note="第1行 标准输出:&quot;9&quot; 选手输出:&quot;10&quot;" state="W"/>
    </subtask>
    <subtask score="0">
        <point ratio="0" note="第1行 标准输出:&quot;5&quot; 选手输出:&quot;6&quot;" state="W"/>
    </subtask>
    <subtask score="5">
        <point ratio="1" note="时间: 0.01s 内存: 11.42MB" state="A"/>
    </subtask>
    <subtask score="0">
        <point ratio="0" note="第1行 标准输出:&quot;11&quot; 选手输出:&quot;12&quot;" state="W"/>
    </subtask>
    <subtask score="0">
        <point ratio="0" note="第1行 标准输出:&quot;18&quot; 选手输出:&quot;19&quot;" state="W"/>
    </subtask>
    <subtask score="0">
        <point ratio="0" note="第1行 标准输出:&quot;34&quot; 选手输出:&quot;35&quot;" state="W"/>
    </subtask>
    <subtask score="0">
        <point ratio="0" note="第1行 标准输出:&quot;22&quot; 选手输出:&quot;23&quot;" state="W"/>
    </subtask>
    <subtask score="0">
        <point ratio="0" note="第1行 标准输出:&quot;23&quot; 选手输出:&quot;24&quot;" state="W"/>
    </subtask>
    <subtask score="0">
        <point ratio="0" note="第1行 标准输出:&quot;19&quot; 选手输出:&quot;20&quot;" state="W"/>
    </subtask>
    <subtask score="5">
        <point ratio="1" note="时间: 0.05s 内存: 11.42MB" state="A"/>
    </subtask>
    <subtask score="0">
        <point ratio="0" note="第1行 标准输出:&quot;35&quot; 选手输出:&quot;36&quot;" state="W"/>
    </subtask>
    <subtask score="0">
        <point ratio="0" note="第1行 标准输出:&quot;32&quot; 选手输出:&quot;33&quot;" state="W"/>
    </subtask>
    <subtask score="0">
        <point ratio="0" note="运行时错误: 3221225477" state="R"/>
    </subtask>
    <subtask score="0">
        <point ratio="0" note="运行时错误: 3221225477" state="R"/>
    </subtask>
    <subtask score="0">
        <point ratio="0" note="运行时错误: 3221225477" state="R"/>
    </subtask>
    <subtask score="0">
        <point ratio="0" note="运行时错误: 3221225477" state="R"/>
    </subtask>
    <subtask score="0">
        <point ratio="0" note="运行时错误: 3221225477" state="R"/>
    </subtask>
    <subtask score="0">
        <point ratio="0" note="运行时错误: 3221225477" state="R"/>
    </subtask>
    <subtask score="0">
        <point ratio="0" note="运行时错误: 3221225477" state="R"/>
    </subtask>
</task>
