<?xml version="1.0" encoding="UTF-8"?>
<task score="100" state="N" version="1.1.0" maker="ccr-plus" time="0.699">
    <subtask score="5">
        <point note="时间: 0.00s 内存: 65.10MB" ratio="1" state="A"/>
    </subtask>
    <subtask score="5">
        <point note="时间: 0.00s 内存: 65.10MB" ratio="1" state="A"/>
    </subtask>
    <subtask score="5">
        <point note="时间: 0.00s 内存: 65.09MB" ratio="1" state="A"/>
    </subtask>
    <subtask score="5">
        <point note="时间: 0.00s 内存: 65.09MB" ratio="1" state="A"/>
    </subtask>
    <subtask score="5">
        <point note="时间: 0.00s 内存: 65.09MB" ratio="1" state="A"/>
    </subtask>
    <subtask score="5">
        <point note="时间: 0.00s 内存: 65.10MB" ratio="1" state="A"/>
    </subtask>
    <subtask score="5">
        <point note="时间: 0.00s 内存: 65.10MB" ratio="1" state="A"/>
    </subtask>
    <subtask score="5">
        <point note="时间: 0.00s 内存: 65.10MB" ratio="1" state="A"/>
    </subtask>
    <subtask score="5">
        <point note="时间: 0.00s 内存: 65.09MB" ratio="1" state="A"/>
    </subtask>
    <subtask score="5">
        <point note="时间: 0.00s 内存: 65.09MB" ratio="1" state="A"/>
    </subtask>
    <subtask score="5">
        <point note="时间: 0.00s 内存: 65.10MB" ratio="1" state="A"/>
    </subtask>
    <subtask score="5">
        <point note="时间: 0.00s 内存: 65.10MB" ratio="1" state="A"/>
    </subtask>
    <subtask score="5">
        <point note="时间: 0.00s 内存: 65.09MB" ratio="1" state="A"/>
    </subtask>
    <subtask score="5">
        <point note="时间: 0.00s 内存: 65.10MB" ratio="1" state="A"/>
    </subtask>
    <subtask score="5">
        <point note="时间: 0.05s 内存: 65.10MB" ratio="1" state="A"/>
    </subtask>
    <subtask score="5">
        <point note="时间: 0.12s 内存: 65.10MB" ratio="1" state="A"/>
    </subtask>
    <subtask score="5">
        <point note="时间: 0.14s 内存: 65.09MB" ratio="1" state="A"/>
    </subtask>
    <subtask score="5">
        <point note="时间: 0.11s 内存: 65.10MB" ratio="1" state="A"/>
    </subtask>
    <subtask score="5">
        <point note="时间: 0.14s 内存: 65.10MB" ratio="1" state="A"/>
    </subtask>
    <subtask score="5">
        <point note="时间: 0.14s 内存: 65.10MB" ratio="1" state="A"/>
    </subtask>
</task>
