<?xml version="1.0" encoding="UTF-8"?>
<task state="N" maker="ccr-plus" version="1.1.0" time="0.539" score="100">
    <subtask score="5">
        <point ratio="1" note="时间: 0.00s 内存: 18.05MB" state="A"/>
    </subtask>
    <subtask score="5">
        <point ratio="1" note="时间: 0.00s 内存: 18.10MB" state="A"/>
    </subtask>
    <subtask score="5">
        <point ratio="1" note="时间: 0.01s 内存: 18.05MB" state="A"/>
    </subtask>
    <subtask score="5">
        <point ratio="1" note="时间: 0.00s 内存: 18.11MB" state="A"/>
    </subtask>
    <subtask score="5">
        <point ratio="1" note="时间: 0.00s 内存: 18.10MB" state="A"/>
    </subtask>
    <subtask score="5">
        <point ratio="1" note="时间: 0.01s 内存: 18.10MB" state="A"/>
    </subtask>
    <subtask score="5">
        <point ratio="1" note="时间: 0.01s 内存: 18.10MB" state="A"/>
    </subtask>
    <subtask score="5">
        <point ratio="1" note="时间: 0.01s 内存: 18.11MB" state="A"/>
    </subtask>
    <subtask score="5">
        <point ratio="1" note="时间: 0.00s 内存: 18.10MB" state="A"/>
    </subtask>
    <subtask score="5">
        <point ratio="1" note="时间: 0.01s 内存: 18.10MB" state="A"/>
    </subtask>
    <subtask score="5">
        <point ratio="1" note="时间: 0.00s 内存: 18.10MB" state="A"/>
    </subtask>
    <subtask score="5">
        <point ratio="1" note="时间: 0.01s 内存: 18.10MB" state="A"/>
    </subtask>
    <subtask score="5">
        <point ratio="1" note="时间: 0.01s 内存: 18.10MB" state="A"/>
    </subtask>
    <subtask score="5">
        <point ratio="1" note="时间: 0.00s 内存: 18.10MB" state="A"/>
    </subtask>
    <subtask score="5">
        <point ratio="1" note="时间: 0.01s 内存: 18.10MB" state="A"/>
    </subtask>
    <subtask score="5">
        <point ratio="1" note="时间: 0.09s 内存: 18.10MB" state="A"/>
    </subtask>
    <subtask score="5">
        <point ratio="1" note="时间: 0.06s 内存: 18.10MB" state="A"/>
    </subtask>
    <subtask score="5">
        <point ratio="1" note="时间: 0.09s 内存: 18.10MB" state="A"/>
    </subtask>
    <subtask score="5">
        <point ratio="1" note="时间: 0.08s 内存: 18.10MB" state="A"/>
    </subtask>
    <subtask score="5">
        <point ratio="1" note="时间: 0.09s 内存: 18.10MB" state="A"/>
    </subtask>
</task>
