<?xml version="1.0" encoding="UTF-8"?>
<task state="C" maker="ccr-plus" version="1.1.0" time="0" score="0">
    <note>编译错误:
2048.cpp: In function 'long long int dp(int, int, int)':&#xd;
2048.cpp:18:31: error: 'long long int dp(int, int, int)' redeclared as different kind of symbol&#xd;
 long long dp(int x,int y,int z){&#xd;
                               ^&#xd;
2048.cpp:17:5: error: previous declaration of 'int dp [253][253][2]'&#xd;
 int dp[253][253][2];&#xd;
     ^&#xd;
2048.cpp:19:21: error: 'jiyi' was not declared in this scope&#xd;
  long long &amp; fanhui=jiyi[x][y][z];&#xd;
                     ^&#xd;
2048.cpp:33:22: error: expected primary-expression before ')' token&#xd;
    fanhui=max(fanhui,)&#xd;
                      ^&#xd;
2048.cpp:34:3: error: expected ';' before '}' token&#xd;
   }&#xd;
   ^&#xd;
2048.cpp: In function 'int main()':&#xd;
2048.cpp:41:9: error: 'jiyi' was not declared in this scope&#xd;
  memset(jiyi,-1,sizeof(jiyi));&#xd;
         ^&#xd;
2048.cpp:41:29: error: 'memset' was not declared in this scope&#xd;
  memset(jiyi,-1,sizeof(jiyi));&#xd;
                             ^&#xd;
2048.cpp:52:23: error: 'dp' cannot be used as a function&#xd;
  long long xx=dp(1,n,0);&#xd;
                       ^&#xd;
2048.cpp:53:12: error: 'ans' was not declared in this scope&#xd;
  cout&lt;&lt;max(ans,maxnum)&lt;&lt;endl;&#xd;
            ^&#xd;
</note>
</task>
