<?xml version="1.0" encoding="UTF-8"?>
<task state="N" maker="ccr-plus" version="1.1.0" time="0.293" score="75">
    <subtask score="5">
        <point ratio="1" note="时间: 0.01s 内存: 2.18MB" state="A"/>
    </subtask>
    <subtask score="5">
        <point ratio="1" note="时间: 0.00s 内存: 2.18MB" state="A"/>
    </subtask>
    <subtask score="5">
        <point ratio="1" note="时间: 0.00s 内存: 2.27MB" state="A"/>
    </subtask>
    <subtask score="5">
        <point ratio="1" note="时间: 0.01s 内存: 2.18MB" state="A"/>
    </subtask>
    <subtask score="5">
        <point ratio="1" note="时间: 0.00s 内存: 2.27MB" state="A"/>
    </subtask>
    <subtask score="5">
        <point ratio="1" note="时间: 0.00s 内存: 2.27MB" state="A"/>
    </subtask>
    <subtask score="5">
        <point ratio="1" note="时间: 0.00s 内存: 2.30MB" state="A"/>
    </subtask>
    <subtask score="5">
        <point ratio="1" note="时间: 0.01s 内存: 2.29MB" state="A"/>
    </subtask>
    <subtask score="5">
        <point ratio="1" note="时间: 0.01s 内存: 2.27MB" state="A"/>
    </subtask>
    <subtask score="5">
        <point ratio="1" note="时间: 0.03s 内存: 2.27MB" state="A"/>
    </subtask>
    <subtask score="5">
        <point ratio="1" note="时间: 0.00s 内存: 2.27MB" state="A"/>
    </subtask>
    <subtask score="5">
        <point ratio="1" note="时间: 0.00s 内存: 2.29MB" state="A"/>
    </subtask>
    <subtask score="5">
        <point ratio="1" note="时间: 0.00s 内存: 2.29MB" state="A"/>
    </subtask>
    <subtask score="5">
        <point ratio="1" note="时间: 0.01s 内存: 2.35MB" state="A"/>
    </subtask>
    <subtask score="5">
        <point ratio="1" note="时间: 0.19s 内存: 6.18MB" state="A"/>
    </subtask>
    <subtask score="0">
        <point ratio="0" note="运行时错误: 3221225477" state="R"/>
    </subtask>
    <subtask score="0">
        <point ratio="0" note="运行时错误: 3221225477" state="R"/>
    </subtask>
    <subtask score="0">
        <point ratio="0" note="运行时错误: 3221225477" state="R"/>
    </subtask>
    <subtask score="0">
        <point ratio="0" note="运行时错误: 3221225477" state="R"/>
    </subtask>
    <subtask score="0">
        <point ratio="0" note="运行时错误: 3221225477" state="R"/>
    </subtask>
</task>
