<?xml version="1.0" encoding="UTF-8"?>
<task state="N" maker="ccr-plus" version="1.1.0" time="1.028" score="100">
    <subtask score="5">
        <point ratio="1" note="时间: 0.00s 内存: 61.36MB" state="A"/>
    </subtask>
    <subtask score="5">
        <point ratio="1" note="时间: 0.00s 内存: 61.36MB" state="A"/>
    </subtask>
    <subtask score="5">
        <point ratio="1" note="时间: 0.00s 内存: 61.36MB" state="A"/>
    </subtask>
    <subtask score="5">
        <point ratio="1" note="时间: 0.00s 内存: 61.36MB" state="A"/>
    </subtask>
    <subtask score="5">
        <point ratio="1" note="时间: 0.00s 内存: 61.36MB" state="A"/>
    </subtask>
    <subtask score="5">
        <point ratio="1" note="时间: 0.00s 内存: 61.36MB" state="A"/>
    </subtask>
    <subtask score="5">
        <point ratio="1" note="时间: 0.00s 内存: 61.36MB" state="A"/>
    </subtask>
    <subtask score="5">
        <point ratio="1" note="时间: 0.00s 内存: 61.36MB" state="A"/>
    </subtask>
    <subtask score="5">
        <point ratio="1" note="时间: 0.00s 内存: 61.36MB" state="A"/>
    </subtask>
    <subtask score="5">
        <point ratio="1" note="时间: 0.00s 内存: 61.36MB" state="A"/>
    </subtask>
    <subtask score="5">
        <point ratio="1" note="时间: 0.00s 内存: 61.36MB" state="A"/>
    </subtask>
    <subtask score="5">
        <point ratio="1" note="时间: 0.00s 内存: 61.36MB" state="A"/>
    </subtask>
    <subtask score="5">
        <point ratio="1" note="时间: 0.00s 内存: 61.36MB" state="A"/>
    </subtask>
    <subtask score="5">
        <point ratio="1" note="时间: 0.00s 内存: 61.36MB" state="A"/>
    </subtask>
    <subtask score="5">
        <point ratio="1" note="时间: 0.08s 内存: 61.36MB" state="A"/>
    </subtask>
    <subtask score="5">
        <point ratio="1" note="时间: 0.22s 内存: 61.36MB" state="A"/>
    </subtask>
    <subtask score="5">
        <point ratio="1" note="时间: 0.16s 内存: 61.36MB" state="A"/>
    </subtask>
    <subtask score="5">
        <point ratio="1" note="时间: 0.19s 内存: 61.37MB" state="A"/>
    </subtask>
    <subtask score="5">
        <point ratio="1" note="时间: 0.19s 内存: 61.36MB" state="A"/>
    </subtask>
    <subtask score="5">
        <point ratio="1" note="时间: 0.20s 内存: 61.36MB" state="A"/>
    </subtask>
</task>
