<?xml version="1.0" encoding="UTF-8"?>
<task state="N" maker="ccr-plus" version="1.1.0" time="0.389" score="15">
    <subtask score="5">
        <point ratio="1" note="时间: 0.00s 内存: 4.09MB" state="A"/>
    </subtask>
    <subtask score="0">
        <point ratio="0" note="第1行 标准输出:&quot;9&quot; 选手输出:&quot;8&quot;" state="W"/>
    </subtask>
    <subtask score="0">
        <point ratio="0" note="第1行 标准输出:&quot;5&quot; 选手输出:&quot;2&quot;" state="W"/>
    </subtask>
    <subtask score="0">
        <point ratio="0" note="第1行 标准输出:&quot;31&quot; 选手输出:&quot;30&quot;" state="W"/>
    </subtask>
    <subtask score="0">
        <point ratio="0" note="第1行 标准输出:&quot;11&quot; 选手输出:&quot;8&quot;" state="W"/>
    </subtask>
    <subtask score="0">
        <point ratio="0" note="第1行 标准输出:&quot;18&quot; 选手输出:&quot;16&quot;" state="W"/>
    </subtask>
    <subtask score="0">
        <point ratio="0" note="第1行 标准输出:&quot;34&quot; 选手输出:&quot;31&quot;" state="W"/>
    </subtask>
    <subtask score="0">
        <point ratio="0" note="第1行 标准输出:&quot;22&quot; 选手输出:&quot;21&quot;" state="W"/>
    </subtask>
    <subtask score="0">
        <point ratio="0" note="第1行 标准输出:&quot;23&quot; 选手输出:&quot;21&quot;" state="W"/>
    </subtask>
    <subtask score="5">
        <point ratio="1" note="时间: 0.00s 内存: 4.09MB" state="A"/>
    </subtask>
    <subtask score="0">
        <point ratio="0" note="第1行 标准输出:&quot;35&quot; 选手输出:&quot;33&quot;" state="W"/>
    </subtask>
    <subtask score="0">
        <point ratio="0" note="第1行 标准输出:&quot;35&quot; 选手输出:&quot;34&quot;" state="W"/>
    </subtask>
    <subtask score="0">
        <point ratio="0" note="第1行 标准输出:&quot;32&quot; 选手输出:&quot;31&quot;" state="W"/>
    </subtask>
    <subtask score="5">
        <point ratio="1" note="时间: 0.00s 内存: 4.09MB" state="A"/>
    </subtask>
    <subtask score="0">
        <point ratio="0" note="第1行 标准输出:&quot;43&quot; 选手输出:&quot;39&quot;" state="W"/>
    </subtask>
    <subtask score="0">
        <point ratio="0" note="第1行 标准输出:&quot;38&quot; 选手输出:&quot;35&quot;" state="W"/>
    </subtask>
    <subtask score="0">
        <point ratio="0" note="第1行 标准输出:&quot;42&quot; 选手输出:&quot;39&quot;" state="W"/>
    </subtask>
    <subtask score="0">
        <point ratio="0" note="第1行 标准输出:&quot;44&quot; 选手输出:&quot;38&quot;" state="W"/>
    </subtask>
    <subtask score="0">
        <point ratio="0" note="第1行 标准输出:&quot;41&quot; 选手输出:&quot;38&quot;" state="W"/>
    </subtask>
    <subtask score="0">
        <point ratio="0" note="第1行 标准输出:&quot;57&quot; 选手输出:&quot;41&quot;" state="W"/>
    </subtask>
</task>
