<?xml version="1.0" encoding="UTF-8"?>
<task state="N" maker="ccr-plus" version="1.1.0" time="1.213" score="100">
    <subtask score="5">
        <point ratio="1" note="时间: 0.00s 内存: 68.44MB" state="A"/>
    </subtask>
    <subtask score="5">
        <point ratio="1" note="时间: 0.00s 内存: 68.44MB" state="A"/>
    </subtask>
    <subtask score="5">
        <point ratio="1" note="时间: 0.00s 内存: 68.45MB" state="A"/>
    </subtask>
    <subtask score="5">
        <point ratio="1" note="时间: 0.00s 内存: 68.44MB" state="A"/>
    </subtask>
    <subtask score="5">
        <point ratio="1" note="时间: 0.00s 内存: 68.44MB" state="A"/>
    </subtask>
    <subtask score="5">
        <point ratio="1" note="时间: 0.00s 内存: 68.45MB" state="A"/>
    </subtask>
    <subtask score="5">
        <point ratio="1" note="时间: 0.01s 内存: 68.45MB" state="A"/>
    </subtask>
    <subtask score="5">
        <point ratio="1" note="时间: 0.00s 内存: 68.45MB" state="A"/>
    </subtask>
    <subtask score="5">
        <point ratio="1" note="时间: 0.00s 内存: 68.45MB" state="A"/>
    </subtask>
    <subtask score="5">
        <point ratio="1" note="时间: 0.00s 内存: 68.45MB" state="A"/>
    </subtask>
    <subtask score="5">
        <point ratio="1" note="时间: 0.00s 内存: 68.45MB" state="A"/>
    </subtask>
    <subtask score="5">
        <point ratio="1" note="时间: 0.00s 内存: 68.45MB" state="A"/>
    </subtask>
    <subtask score="5">
        <point ratio="1" note="时间: 0.00s 内存: 68.44MB" state="A"/>
    </subtask>
    <subtask score="5">
        <point ratio="1" note="时间: 0.01s 内存: 68.45MB" state="A"/>
    </subtask>
    <subtask score="5">
        <point ratio="1" note="时间: 0.09s 内存: 68.45MB" state="A"/>
    </subtask>
    <subtask score="5">
        <point ratio="1" note="时间: 0.22s 内存: 68.45MB" state="A"/>
    </subtask>
    <subtask score="5">
        <point ratio="1" note="时间: 0.19s 内存: 68.45MB" state="A"/>
    </subtask>
    <subtask score="5">
        <point ratio="1" note="时间: 0.25s 内存: 68.44MB" state="A"/>
    </subtask>
    <subtask score="5">
        <point ratio="1" note="时间: 0.23s 内存: 68.45MB" state="A"/>
    </subtask>
    <subtask score="5">
        <point ratio="1" note="时间: 0.20s 内存: 68.45MB" state="A"/>
    </subtask>
</task>
