<?xml version="1.0" encoding="UTF-8"?>
<task state="N" maker="ccr-plus" version="1.1.0" time="12.062" score="70">
    <subtask score="5">
        <point ratio="1" note="时间: 0.00s 内存: 2.54MB" state="A"/>
    </subtask>
    <subtask score="5">
        <point ratio="1" note="时间: 0.00s 内存: 2.53MB" state="A"/>
    </subtask>
    <subtask score="5">
        <point ratio="1" note="时间: 0.00s 内存: 2.54MB" state="A"/>
    </subtask>
    <subtask score="5">
        <point ratio="1" note="时间: 0.00s 内存: 2.54MB" state="A"/>
    </subtask>
    <subtask score="5">
        <point ratio="1" note="时间: 0.00s 内存: 2.53MB" state="A"/>
    </subtask>
    <subtask score="5">
        <point ratio="1" note="时间: 0.00s 内存: 2.53MB" state="A"/>
    </subtask>
    <subtask score="5">
        <point ratio="1" note="时间: 0.00s 内存: 2.54MB" state="A"/>
    </subtask>
    <subtask score="5">
        <point ratio="1" note="时间: 0.00s 内存: 2.54MB" state="A"/>
    </subtask>
    <subtask score="5">
        <point ratio="1" note="时间: 0.00s 内存: 2.53MB" state="A"/>
    </subtask>
    <subtask score="5">
        <point ratio="1" note="时间: 0.00s 内存: 2.54MB" state="A"/>
    </subtask>
    <subtask score="5">
        <point ratio="1" note="时间: 0.00s 内存: 2.54MB" state="A"/>
    </subtask>
    <subtask score="5">
        <point ratio="1" note="时间: 0.00s 内存: 2.54MB" state="A"/>
    </subtask>
    <subtask score="5">
        <point ratio="1" note="时间: 0.00s 内存: 2.53MB" state="A"/>
    </subtask>
    <subtask score="5">
        <point ratio="1" note="时间: 0.06s 内存: 2.54MB" state="A"/>
    </subtask>
    <subtask score="0">
        <point ratio="0" note="超过时间限制" state="T"/>
    </subtask>
    <subtask score="0">
        <point ratio="0" note="超过时间限制" state="T"/>
    </subtask>
    <subtask score="0">
        <point ratio="0" note="超过时间限制" state="T"/>
    </subtask>
    <subtask score="0">
        <point ratio="0" note="超过时间限制" state="T"/>
    </subtask>
    <subtask score="0">
        <point ratio="0" note="超过时间限制" state="T"/>
    </subtask>
    <subtask score="0">
        <point ratio="0" note="超过时间限制" state="T"/>
    </subtask>
</task>
