<?xml version="1.0" encoding="UTF-8"?>
<task state="N" maker="ccr-plus" version="1.1.0" time="0" score="0">
    <subtask score="0">
        <point ratio="0" note="运行时错误: 233" state="R"/>
    </subtask>
    <subtask score="0">
        <point ratio="0" note="运行时错误: 233" state="R"/>
    </subtask>
    <subtask score="0">
        <point ratio="0" note="运行时错误: 233" state="R"/>
    </subtask>
    <subtask score="0">
        <point ratio="0" note="运行时错误: 233" state="R"/>
    </subtask>
    <subtask score="0">
        <point ratio="0" note="运行时错误: 233" state="R"/>
    </subtask>
    <subtask score="0">
        <point ratio="0" note="运行时错误: 233" state="R"/>
    </subtask>
    <subtask score="0">
        <point ratio="0" note="运行时错误: 233" state="R"/>
    </subtask>
    <subtask score="0">
        <point ratio="0" note="运行时错误: 233" state="R"/>
    </subtask>
    <subtask score="0">
        <point ratio="0" note="运行时错误: 233" state="R"/>
    </subtask>
    <subtask score="0">
        <point ratio="0" note="运行时错误: 233" state="R"/>
    </subtask>
    <subtask score="0">
        <point ratio="0" note="运行时错误: 233" state="R"/>
    </subtask>
    <subtask score="0">
        <point ratio="0" note="运行时错误: 233" state="R"/>
    </subtask>
    <subtask score="0">
        <point ratio="0" note="运行时错误: 233" state="R"/>
    </subtask>
    <subtask score="0">
        <point ratio="0" note="运行时错误: 233" state="R"/>
    </subtask>
    <subtask score="0">
        <point ratio="0" note="运行时错误: 233" state="R"/>
    </subtask>
    <subtask score="0">
        <point ratio="0" note="运行时错误: 233" state="R"/>
    </subtask>
    <subtask score="0">
        <point ratio="0" note="运行时错误: 233" state="R"/>
    </subtask>
    <subtask score="0">
        <point ratio="0" note="运行时错误: 233" state="R"/>
    </subtask>
    <subtask score="0">
        <point ratio="0" note="运行时错误: 233" state="R"/>
    </subtask>
    <subtask score="0">
        <point ratio="0" note="运行时错误: 233" state="R"/>
    </subtask>
</task>
