<?xml version="1.0" encoding="UTF-8"?>
<task state="N" maker="ccr-plus" version="1.1.0" time="2.121" score="65">
    <subtask score="5">
        <point ratio="1" note="时间: 0.00s 内存: 15.63MB" state="A"/>
    </subtask>
    <subtask score="5">
        <point ratio="1" note="时间: 0.00s 内存: 15.63MB" state="A"/>
    </subtask>
    <subtask score="5">
        <point ratio="1" note="时间: 0.00s 内存: 15.63MB" state="A"/>
    </subtask>
    <subtask score="5">
        <point ratio="1" note="时间: 0.00s 内存: 15.63MB" state="A"/>
    </subtask>
    <subtask score="5">
        <point ratio="1" note="时间: 0.00s 内存: 15.63MB" state="A"/>
    </subtask>
    <subtask score="5">
        <point ratio="1" note="时间: 0.00s 内存: 15.63MB" state="A"/>
    </subtask>
    <subtask score="5">
        <point ratio="1" note="时间: 0.01s 内存: 15.63MB" state="A"/>
    </subtask>
    <subtask score="5">
        <point ratio="1" note="时间: 0.01s 内存: 15.63MB" state="A"/>
    </subtask>
    <subtask score="5">
        <point ratio="1" note="时间: 0.01s 内存: 15.63MB" state="A"/>
    </subtask>
    <subtask score="5">
        <point ratio="1" note="时间: 0.03s 内存: 15.63MB" state="A"/>
    </subtask>
    <subtask score="5">
        <point ratio="1" note="时间: 0.01s 内存: 15.63MB" state="A"/>
    </subtask>
    <subtask score="5">
        <point ratio="1" note="时间: 0.01s 内存: 15.63MB" state="A"/>
    </subtask>
    <subtask score="5">
        <point ratio="1" note="时间: 0.01s 内存: 15.63MB" state="A"/>
    </subtask>
    <subtask score="0">
        <point ratio="0" note="超过时间限制" state="T"/>
    </subtask>
    <subtask score="0">
        <point ratio="0" note="运行时错误: 3221225477" state="R"/>
    </subtask>
    <subtask score="0">
        <point ratio="0" note="运行时错误: 3221225477" state="R"/>
    </subtask>
    <subtask score="0">
        <point ratio="0" note="运行时错误: 3221225477" state="R"/>
    </subtask>
    <subtask score="0">
        <point ratio="0" note="运行时错误: 3221225477" state="R"/>
    </subtask>
    <subtask score="0">
        <point ratio="0" note="运行时错误: 3221225477" state="R"/>
    </subtask>
    <subtask score="0">
        <point ratio="0" note="运行时错误: 3221225477" state="R"/>
    </subtask>
</task>
