<?xml version="1.0" encoding="UTF-8"?>
<task maker="ccr-plus" score="100" state="N" version="1.1.0" time="5.554">
    <subtask score="10">
        <point ratio="1" state="A" note="时间: 0.06s 内存: 0.55MB"/>
    </subtask>
    <subtask score="10">
        <point ratio="1" state="A" note="时间: 0.69s 内存: 93.08MB"/>
    </subtask>
    <subtask score="10">
        <point ratio="1" state="A" note="时间: 0.77s 内存: 128.56MB"/>
    </subtask>
    <subtask score="10">
        <point ratio="1" state="A" note="时间: 0.05s 内存: 0.55MB"/>
    </subtask>
    <subtask score="10">
        <point ratio="1" state="A" note="时间: 0.44s 内存: 61.73MB"/>
    </subtask>
    <subtask score="10">
        <point ratio="1" state="A" note="时间: 0.53s 内存: 97.81MB"/>
    </subtask>
    <subtask score="10">
        <point ratio="1" state="A" note="时间: 0.65s 内存: 96.03MB"/>
    </subtask>
    <subtask score="10">
        <point ratio="1" state="A" note="时间: 0.71s 内存: 96.63MB"/>
    </subtask>
    <subtask score="10">
        <point ratio="1" state="A" note="时间: 0.70s 内存: 99.97MB"/>
    </subtask>
    <subtask score="10">
        <point ratio="1" state="A" note="时间: 0.95s 内存: 132.81MB"/>
    </subtask>
</task>
