<?xml version="1.0" encoding="UTF-8"?>
<task state="N" maker="ccr-plus" version="1.1.0" time="3.73" score="70">
    <subtask score="10">
        <point ratio="1" note="时间: 0.01s 内存: 2.23MB" state="A"/>
    </subtask>
    <subtask score="10">
        <point ratio="1" note="时间: 0.01s 内存: 2.31MB" state="A"/>
    </subtask>
    <subtask score="10">
        <point ratio="1" note="时间: 0.05s 内存: 2.33MB" state="A"/>
    </subtask>
    <subtask score="10">
        <point ratio="1" note="时间: 0.01s 内存: 2.32MB" state="A"/>
    </subtask>
    <subtask score="10">
        <point ratio="1" note="时间: 0.03s 内存: 2.35MB" state="A"/>
    </subtask>
    <subtask score="10">
        <point ratio="1" note="时间: 0.31s 内存: 2.35MB" state="A"/>
    </subtask>
    <subtask score="10">
        <point ratio="1" note="时间: 0.30s 内存: 2.35MB" state="A"/>
    </subtask>
    <subtask score="0">
        <point ratio="0" note="超过时间限制" state="T"/>
    </subtask>
    <subtask score="0">
        <point ratio="0" note="超过时间限制" state="T"/>
    </subtask>
    <subtask score="0">
        <point ratio="0" note="超过时间限制" state="T"/>
    </subtask>
</task>
