<?xml version="1.0" encoding="UTF-8"?>
<task state="N" maker="ccr-plus" version="1.1.0" time="0.636" score="100">
    <subtask score="10">
        <point ratio="1" note="时间: 0.00s 内存: 6.91MB" state="A"/>
    </subtask>
    <subtask score="10">
        <point ratio="1" note="时间: 0.00s 内存: 6.93MB" state="A"/>
    </subtask>
    <subtask score="10">
        <point ratio="1" note="时间: 0.01s 内存: 6.99MB" state="A"/>
    </subtask>
    <subtask score="10">
        <point ratio="1" note="时间: 0.00s 内存: 6.95MB" state="A"/>
    </subtask>
    <subtask score="10">
        <point ratio="1" note="时间: 0.00s 内存: 6.99MB" state="A"/>
    </subtask>
    <subtask score="10">
        <point ratio="1" note="时间: 0.01s 内存: 6.99MB" state="A"/>
    </subtask>
    <subtask score="10">
        <point ratio="1" note="时间: 0.01s 内存: 6.99MB" state="A"/>
    </subtask>
    <subtask score="10">
        <point ratio="1" note="时间: 0.17s 内存: 8.96MB" state="A"/>
    </subtask>
    <subtask score="10">
        <point ratio="1" note="时间: 0.12s 内存: 8.95MB" state="A"/>
    </subtask>
    <subtask score="10">
        <point ratio="1" note="时间: 0.30s 内存: 8.96MB" state="A"/>
    </subtask>
</task>
