<?xml version="1.0" encoding="UTF-8"?>
<task state="N" maker="ccr-plus" version="1.1.0" time="4.62" score="70">
    <subtask score="10">
        <point ratio="1" note="时间: 0.00s 内存: 6.36MB" state="A"/>
    </subtask>
    <subtask score="10">
        <point ratio="1" note="时间: 0.03s 内存: 6.36MB" state="A"/>
    </subtask>
    <subtask score="10">
        <point ratio="1" note="时间: 0.17s 内存: 6.36MB" state="A"/>
    </subtask>
    <subtask score="10">
        <point ratio="1" note="时间: 0.11s 内存: 6.36MB" state="A"/>
    </subtask>
    <subtask score="10">
        <point ratio="1" note="时间: 0.51s 内存: 6.36MB" state="A"/>
    </subtask>
    <subtask score="10">
        <point ratio="1" note="时间: 0.37s 内存: 6.36MB" state="A"/>
    </subtask>
    <subtask score="10">
        <point ratio="1" note="时间: 0.42s 内存: 6.36MB" state="A"/>
    </subtask>
    <subtask score="0">
        <point ratio="0" note="超过时间限制" state="T"/>
    </subtask>
    <subtask score="0">
        <point ratio="0" note="超过时间限制" state="T"/>
    </subtask>
    <subtask score="0">
        <point ratio="0" note="超过时间限制" state="T"/>
    </subtask>
</task>
