<?xml version="1.0" encoding="UTF-8"?>
<task state="N" maker="ccr-plus" version="1.1.0" time="3.684" score="30">
    <subtask score="10">
        <point ratio="1" note="时间: 0.00s 内存: 5.29MB" state="A"/>
    </subtask>
    <subtask score="10">
        <point ratio="1" note="时间: 0.00s 内存: 5.29MB" state="A"/>
    </subtask>
    <subtask score="10">
        <point ratio="1" note="时间: 0.05s 内存: 5.29MB" state="A"/>
    </subtask>
    <subtask score="0">
        <point ratio="0" note="第2行 标准输出:&quot;2586286881&quot; 选手输出:&quot;-1708680415&quot;" state="W"/>
    </subtask>
    <subtask score="0">
        <point ratio="0" note="第1行 标准输出:&quot;9995198053&quot; 选手输出:&quot;1745757951&quot;" state="W"/>
    </subtask>
    <subtask score="0">
        <point ratio="0" note="第2行 标准输出:&quot;5541482848&quot; 选手输出:&quot;-1795625944&quot;" state="W"/>
    </subtask>
    <subtask score="0">
        <point ratio="0" note="第1行 标准输出:&quot;10081493030…&quot; 选手输出:&quot;-1168011525&quot;" state="W"/>
    </subtask>
    <subtask score="0">
        <point ratio="0" note="超过时间限制" state="T"/>
    </subtask>
    <subtask score="0">
        <point ratio="0" note="超过时间限制" state="T"/>
    </subtask>
    <subtask score="0">
        <point ratio="0" note="超过时间限制" state="T"/>
    </subtask>
</task>
