<?xml version="1.0" encoding="UTF-8"?>
<task state="N" maker="ccr-plus" version="1.1.0" time="1.916" score="10">
    <subtask score="10">
        <point ratio="1" note="时间: 0.01s 内存: 3.04MB" state="A"/>
    </subtask>
    <subtask score="0">
        <point ratio="0" note="第1行 标准输出:&quot;5025908&quot; 选手输出:&quot;7206706&quot;" state="W"/>
    </subtask>
    <subtask score="0">
        <point ratio="0" note="第1行 标准输出:&quot;1736159550&quot; 选手输出:&quot;-975660950&quot;" state="W"/>
    </subtask>
    <subtask score="0">
        <point ratio="0" note="第1行 标准输出:&quot;485502742&quot; 选手输出:&quot;672763809&quot;" state="W"/>
    </subtask>
    <subtask score="0">
        <point ratio="0" note="第1行 标准输出:&quot;9995198053&quot; 选手输出:&quot;1494820295&quot;" state="W"/>
    </subtask>
    <subtask score="0">
        <point ratio="0" note="第2行 标准输出:&quot;5541482848&quot; 选手输出:&quot;232700877&quot;" state="W"/>
    </subtask>
    <subtask score="0">
        <point ratio="0" note="第1行 标准输出:&quot;10081493030…&quot; 选手输出:&quot;-1168011525&quot;" state="W"/>
    </subtask>
    <subtask score="0">
        <point ratio="0" note="超过时间限制" state="T"/>
    </subtask>
    <subtask score="0">
        <point ratio="0" note="第1行 标准输出:&quot;103707495912&quot; 选手输出:&quot;311454373&quot;" state="W"/>
    </subtask>
    <subtask score="0">
        <point ratio="0" note="第1行 标准输出:&quot;20448369036&quot; 选手输出:&quot;-1813121237&quot;" state="W"/>
    </subtask>
</task>
