<?xml version="1.0" encoding="UTF-8"?>
<task score="100" state="N" time="4.521" version="1.1.0" maker="ccr-plus">
    <subtask score="10">
        <point ratio="1" note="时间: 0.00s 内存: 0.68MB" state="A"/>
    </subtask>
    <subtask score="10">
        <point ratio="1" note="时间: 0.03s 内存: 0.68MB" state="A"/>
    </subtask>
    <subtask score="10">
        <point ratio="1" note="时间: 0.05s 内存: 0.67MB" state="A"/>
    </subtask>
    <subtask score="10">
        <point ratio="1" note="时间: 0.08s 内存: 0.68MB" state="A"/>
    </subtask>
    <subtask score="10">
        <point ratio="1" note="时间: 0.14s 内存: 0.68MB" state="A"/>
    </subtask>
    <subtask score="10">
        <point ratio="1" note="时间: 0.30s 内存: 0.68MB" state="A"/>
    </subtask>
    <subtask score="10">
        <point ratio="1" note="时间: 0.56s 内存: 0.68MB" state="A"/>
    </subtask>
    <subtask score="10">
        <point ratio="1" note="时间: 0.73s 内存: 0.68MB" state="A"/>
    </subtask>
    <subtask score="10">
        <point ratio="1" note="时间: 1.17s 内存: 0.68MB" state="A"/>
    </subtask>
    <subtask score="10">
        <point ratio="1" note="时间: 1.47s 内存: 0.68MB" state="A"/>
    </subtask>
</task>
