<?xml version="1.0" encoding="UTF-8"?>
<task time="6.16" maker="ccr-plus" score="100" version="1.1.0" state="N">
    <subtask score="25">
        <point note="时间: 0.00s 内存: 1.50MB" ratio="1" state="A"/>
    </subtask>
    <subtask score="25">
        <point note="时间: 2.06s 内存: 24.32MB" ratio="1" state="A"/>
    </subtask>
    <subtask score="25">
        <point note="时间: 2.05s 内存: 24.32MB" ratio="1" state="A"/>
    </subtask>
    <subtask score="25">
        <point note="时间: 2.04s 内存: 24.32MB" ratio="1" state="A"/>
    </subtask>
</task>
