\relax 
\providecommand\hyper@newdestlabel[2]{}
\@writefile{toc}{\contentsline {section}{横裂之魄}{2}{section*.1}}
\@writefile{toc}{\contentsline {subsection}{【问题描述】}{2}{section*.2}}
\@writefile{toc}{\contentsline {subsection}{【输入格式】}{2}{section*.3}}
\@writefile{toc}{\contentsline {subsection}{【输出格式】}{3}{section*.4}}
\@writefile{toc}{\contentsline {subsection}{【样例输入】}{3}{section*.5}}
\@writefile{toc}{\contentsline {subsection}{【样例输出】}{3}{section*.6}}
\@writefile{toc}{\contentsline {subsection}{【数据规模】}{3}{section*.7}}
\@setckpt{a}{
\setcounter{page}{4}
\setcounter{equation}{0}
\setcounter{enumi}{0}
\setcounter{enumii}{0}
\setcounter{enumiii}{0}
\setcounter{enumiv}{0}
\setcounter{footnote}{0}
\setcounter{mpfootnote}{0}
\setcounter{part}{0}
\setcounter{section}{0}
\setcounter{subsection}{0}
\setcounter{subsubsection}{0}
\setcounter{paragraph}{0}
\setcounter{subparagraph}{0}
\setcounter{figure}{0}
\setcounter{table}{0}
\setcounter{float@type}{4}
\setcounter{parentequation}{0}
\setcounter{Item}{0}
\setcounter{Hfootnote}{0}
\setcounter{bookmark@seq@number}{7}
\setcounter{section@level}{2}
}
