\relax 
\providecommand\hyper@newdestlabel[2]{}
\@writefile{toc}{\contentsline {section}{共鸣心焦}{4}{section*.8}}
\@writefile{toc}{\contentsline {subsection}{【问题描述】}{4}{section*.9}}
\@writefile{toc}{\contentsline {subsection}{【输入格式】}{4}{section*.10}}
\@writefile{toc}{\contentsline {subsection}{【输出格式】}{4}{section*.11}}
\@writefile{toc}{\contentsline {subsection}{【样例输入】}{4}{section*.12}}
\@writefile{toc}{\contentsline {subsection}{【样例输出】}{4}{section*.13}}
\@writefile{toc}{\contentsline {subsection}{【数据规模】}{5}{section*.14}}
\@setckpt{b}{
\setcounter{page}{6}
\setcounter{equation}{0}
\setcounter{enumi}{0}
\setcounter{enumii}{0}
\setcounter{enumiii}{0}
\setcounter{enumiv}{0}
\setcounter{footnote}{0}
\setcounter{mpfootnote}{0}
\setcounter{part}{0}
\setcounter{section}{0}
\setcounter{subsection}{0}
\setcounter{subsubsection}{0}
\setcounter{paragraph}{0}
\setcounter{subparagraph}{0}
\setcounter{figure}{0}
\setcounter{table}{0}
\setcounter{float@type}{4}
\setcounter{parentequation}{0}
\setcounter{Item}{0}
\setcounter{Hfootnote}{0}
\setcounter{bookmark@seq@number}{14}
\setcounter{section@level}{2}
}
