\relax 
\providecommand\hyper@newdestlabel[2]{}
\@writefile{toc}{\contentsline {section}{落虹之弧}{6}{section*.15}}
\@writefile{toc}{\contentsline {subsection}{【问题描述】}{6}{section*.16}}
\@writefile{toc}{\contentsline {subsection}{【输入格式】}{6}{section*.17}}
\@writefile{toc}{\contentsline {subsection}{【输出格式】}{6}{section*.18}}
\@writefile{toc}{\contentsline {subsection}{【样例输入1】}{6}{section*.19}}
\@writefile{toc}{\contentsline {subsection}{【样例输出1】}{6}{section*.20}}
\@writefile{toc}{\contentsline {subsection}{【样例输入2】}{7}{section*.21}}
\@writefile{toc}{\contentsline {subsection}{【样例输出2】}{7}{section*.22}}
\@writefile{toc}{\contentsline {subsection}{【样例输入3】}{7}{section*.23}}
\@writefile{toc}{\contentsline {subsection}{【样例输出3】}{7}{section*.24}}
\@writefile{toc}{\contentsline {subsection}{【数据规模】}{7}{section*.25}}
\@setckpt{c}{
\setcounter{page}{8}
\setcounter{equation}{0}
\setcounter{enumi}{0}
\setcounter{enumii}{0}
\setcounter{enumiii}{0}
\setcounter{enumiv}{0}
\setcounter{footnote}{0}
\setcounter{mpfootnote}{0}
\setcounter{part}{0}
\setcounter{section}{0}
\setcounter{subsection}{0}
\setcounter{subsubsection}{0}
\setcounter{paragraph}{0}
\setcounter{subparagraph}{0}
\setcounter{figure}{0}
\setcounter{table}{0}
\setcounter{float@type}{4}
\setcounter{parentequation}{0}
\setcounter{Item}{0}
\setcounter{Hfootnote}{0}
\setcounter{bookmark@seq@number}{25}
\setcounter{section@level}{2}
}
