<?xml version="1.0" encoding="UTF-8"?>
<task state="N" maker="ccr-plus" score="100" time="1.276" version="1.1.0">
    <subtask score="10">
        <point ratio="1" state="A" note="时间: 0.14s 内存: 0.56MB"/>
    </subtask>
    <subtask score="10">
        <point ratio="1" state="A" note="时间: 0.16s 内存: 0.55MB"/>
    </subtask>
    <subtask score="10">
        <point ratio="1" state="A" note="时间: 0.19s 内存: 0.56MB"/>
    </subtask>
    <subtask score="10">
        <point ratio="1" state="A" note="时间: 0.13s 内存: 0.56MB"/>
    </subtask>
    <subtask score="10">
        <point ratio="1" state="A" note="时间: 0.17s 内存: 0.56MB"/>
    </subtask>
    <subtask score="10">
        <point ratio="1" state="A" note="时间: 0.05s 内存: 0.56MB"/>
    </subtask>
    <subtask score="10">
        <point ratio="1" state="A" note="时间: 0.03s 内存: 0.56MB"/>
    </subtask>
    <subtask score="10">
        <point ratio="1" state="A" note="时间: 0.14s 内存: 0.55MB"/>
    </subtask>
    <subtask score="10">
        <point ratio="1" state="A" note="时间: 0.19s 内存: 0.55MB"/>
    </subtask>
    <subtask score="10">
        <point ratio="1" state="A" note="时间: 0.09s 内存: 0.56MB"/>
    </subtask>
</task>
