<?xml version="1.0" encoding="UTF-8"?>
<task score="100" time="9.233000000000001" state="N">
    <subtask score="10">
        <point ratio="1" state="A" note="时间: 0.00s 内存: 0.53MB"/>
    </subtask>
    <subtask score="10">
        <point ratio="1" state="A" note="时间: 0.00s 内存: 0.52MB"/>
    </subtask>
    <subtask score="10">
        <point ratio="1" state="A" note="时间: 0.00s 内存: 0.53MB"/>
    </subtask>
    <subtask score="10">
        <point ratio="1" state="A" note="时间: 0.00s 内存: 0.53MB"/>
    </subtask>
    <subtask score="10">
        <point ratio="1" state="A" note="时间: 0.00s 内存: 0.61MB"/>
    </subtask>
    <subtask score="10">
        <point ratio="1" state="A" note="时间: 0.09s 内存: 0.71MB"/>
    </subtask>
    <subtask score="10">
        <point ratio="1" state="A" note="时间: 0.00s 内存: 0.66MB"/>
    </subtask>
    <subtask score="10">
        <point ratio="1" state="A" note="时间: 4.77s 内存: 7.23MB"/>
    </subtask>
    <subtask score="10">
        <point ratio="1" state="A" note="时间: 1.89s 内存: 2.27MB"/>
    </subtask>
    <subtask score="10">
        <point ratio="1" state="A" note="时间: 2.48s 内存: 3.34MB"/>
    </subtask>
</task>
