<?xml version="1.0" encoding="UTF-8"?>
<task score="100" time="9.295999999999999" state="N">
    <subtask score="10">
        <point ratio="1" state="A" note="时间: 0.00s 内存: 0.53MB"/>
    </subtask>
    <subtask score="10">
        <point ratio="1" state="A" note="时间: 0.00s 内存: 0.53MB"/>
    </subtask>
    <subtask score="10">
        <point ratio="1" state="A" note="时间: 0.00s 内存: 0.52MB"/>
    </subtask>
    <subtask score="10">
        <point ratio="1" state="A" note="时间: 0.00s 内存: 0.53MB"/>
    </subtask>
    <subtask score="10">
        <point ratio="1" state="A" note="时间: 0.00s 内存: 0.61MB"/>
    </subtask>
    <subtask score="10">
        <point ratio="1" state="A" note="时间: 0.09s 内存: 0.72MB"/>
    </subtask>
    <subtask score="10">
        <point ratio="1" state="A" note="时间: 0.00s 内存: 0.66MB"/>
    </subtask>
    <subtask score="10">
        <point ratio="1" state="A" note="时间: 4.87s 内存: 7.11MB"/>
    </subtask>
    <subtask score="10">
        <point ratio="1" state="A" note="时间: 1.90s 内存: 2.27MB"/>
    </subtask>
    <subtask score="10">
        <point ratio="1" state="A" note="时间: 2.43s 内存: 3.44MB"/>
    </subtask>
</task>
