<?xml version="1.0" encoding="UTF-8"?>
<task score="100" time="15.88" state="N">
    <subtask score="10">
        <point note="时间: 0.00s 内存: 0.51MB" ratio="1" state="A"/>
    </subtask>
    <subtask score="10">
        <point note="时间: 0.00s 内存: 0.51MB" ratio="1" state="A"/>
    </subtask>
    <subtask score="10">
        <point note="时间: 0.00s 内存: 0.51MB" ratio="1" state="A"/>
    </subtask>
    <subtask score="10">
        <point note="时间: 0.00s 内存: 0.51MB" ratio="1" state="A"/>
    </subtask>
    <subtask score="10">
        <point note="时间: 0.00s 内存: 0.59MB" ratio="1" state="A"/>
    </subtask>
    <subtask score="10">
        <point note="时间: 0.16s 内存: 4.33MB" ratio="1" state="A"/>
    </subtask>
    <subtask score="10">
        <point note="时间: 0.00s 内存: 0.80MB" ratio="1" state="A"/>
    </subtask>
    <subtask score="10">
        <point note="时间: 8.42s 内存: 174.93MB" ratio="1" state="A"/>
    </subtask>
    <subtask score="10">
        <point note="时间: 3.13s 内存: 69.85MB" ratio="1" state="A"/>
    </subtask>
    <subtask score="10">
        <point note="时间: 4.17s 内存: 92.29MB" ratio="1" state="A"/>
    </subtask>
</task>
