<?xml version="1.0" encoding="UTF-8"?>
<task score="0" time="0" state="C">
    <note>编译错误:
In file included from C:/mingw32/i686-w64-mingw32/include/c++/unordered_set:35:0,&#xd;
                 from us.cpp:3:&#xd;
C:/mingw32/i686-w64-mingw32/include/c++/bits/c++0x_warning.h:32:2: error: #error This file requires compiler and library support for the ISO C++ 2011 standard. This support is currently experimental, and must be enabled with the -std=c++11 or -std=gnu++11 compiler options.&#xd;
 #error This file requires compiler and library support for the \&#xd;
  ^&#xd;
us.cpp:7:1: error: 'unordered_set' does not name a type&#xd;
 unordered_set&lt;string> S;&#xd;
 ^&#xd;
us.cpp: In function 'void dfs(int, std::string)':&#xd;
us.cpp:44:12: error: 'S' was not declared in this scope&#xd;
        if(!S.count(ss))&#xd;
            ^&#xd;
us.cpp: In function 'int main()':&#xd;
us.cpp:88:3: error: 'S' was not declared in this scope&#xd;
   S.insert(mes);&#xd;
   ^&#xd;
</note>
</task>
