<?xml version="1.0" encoding="UTF-8"?>
<task maker="ccr-plus" version="1.1.0" time="3.202" score="100" state="N">
    <subtask score="25">
        <point ratio="1" note="时间: 0.00s 内存: 1.00MB" state="A"/>
    </subtask>
    <subtask score="25">
        <point ratio="1" note="时间: 0.98s 内存: 50.13MB" state="A"/>
    </subtask>
    <subtask score="25">
        <point ratio="1" note="时间: 1.13s 内存: 50.14MB" state="A"/>
    </subtask>
    <subtask score="25">
        <point ratio="1" note="时间: 1.09s 内存: 50.10MB" state="A"/>
    </subtask>
</task>
