<?xml version="1.0" encoding="UTF-8"?>
<task maker="ccr-plus" version="1.1.0" time="2.327" score="100" state="N">
    <subtask score="25">
        <point ratio="1" note="时间: 0.00s 内存: 1.00MB" state="A"/>
    </subtask>
    <subtask score="25">
        <point ratio="1" note="时间: 0.78s 内存: 26.04MB" state="A"/>
    </subtask>
    <subtask score="25">
        <point ratio="1" note="时间: 0.78s 内存: 26.04MB" state="A"/>
    </subtask>
    <subtask score="25">
        <point ratio="1" note="时间: 0.77s 内存: 26.02MB" state="A"/>
    </subtask>
</task>
