<?xml version="1.0" encoding="UTF-8"?>
<task maker="ccr-plus" version="1.1.0" time="3.748" score="100" state="N">
    <subtask score="25">
        <point ratio="1" note="时间: 0.01s 内存: 0.98MB" state="A"/>
    </subtask>
    <subtask score="25">
        <point ratio="1" note="时间: 1.27s 内存: 46.00MB" state="A"/>
    </subtask>
    <subtask score="25">
        <point ratio="1" note="时间: 1.27s 内存: 45.99MB" state="A"/>
    </subtask>
    <subtask score="25">
        <point ratio="1" note="时间: 1.20s 内存: 46.02MB" state="A"/>
    </subtask>
</task>
