<?xml version="1.0" encoding="UTF-8"?>
<task maker="ccr-plus" version="1.1.0" time="8.17" score="100" state="N">
    <subtask score="25">
        <point ratio="1" note="时间: 0.01s 内存: 1.00MB" state="A"/>
    </subtask>
    <subtask score="25">
        <point ratio="1" note="时间: 2.69s 内存: 50.13MB" state="A"/>
    </subtask>
    <subtask score="25">
        <point ratio="1" note="时间: 2.77s 内存: 50.13MB" state="A"/>
    </subtask>
    <subtask score="25">
        <point ratio="1" note="时间: 2.70s 内存: 50.13MB" state="A"/>
    </subtask>
</task>
