<?xml version="1.0" encoding="UTF-8"?>
<task maker="ccr-plus" version="1.1.0" time="4.326000000000001" score="100" state="N">
    <subtask score="25">
        <point ratio="1" note="时间: 0.01s 内存: 0.98MB" state="A"/>
    </subtask>
    <subtask score="25">
        <point ratio="1" note="时间: 1.52s 内存: 42.05MB" state="A"/>
    </subtask>
    <subtask score="25">
        <point ratio="1" note="时间: 1.45s 内存: 42.08MB" state="A"/>
    </subtask>
    <subtask score="25">
        <point ratio="1" note="时间: 1.34s 内存: 42.06MB" state="A"/>
    </subtask>
</task>
