<?xml version="1.0" encoding="UTF-8"?>
<task time="0.241" score="100" state="N" version="1.1.0" maker="ccr-plus">
    <subtask score="10">
        <point note="时间: 0.03s 内存: 0.52MB" state="A" ratio="1"/>
    </subtask>
    <subtask score="10">
        <point note="时间: 0.03s 内存: 0.52MB" state="A" ratio="1"/>
    </subtask>
    <subtask score="10">
        <point note="时间: 0.02s 内存: 0.53MB" state="A" ratio="1"/>
    </subtask>
    <subtask score="10">
        <point note="时间: 0.04s 内存: 0.52MB" state="A" ratio="1"/>
    </subtask>
    <subtask score="10">
        <point note="时间: 0.02s 内存: 0.52MB" state="A" ratio="1"/>
    </subtask>
    <subtask score="10">
        <point note="时间: 0.02s 内存: 0.52MB" state="A" ratio="1"/>
    </subtask>
    <subtask score="10">
        <point note="时间: 0.01s 内存: 0.52MB" state="A" ratio="1"/>
    </subtask>
    <subtask score="10">
        <point note="时间: 0.03s 内存: 0.52MB" state="A" ratio="1"/>
    </subtask>
    <subtask score="10">
        <point note="时间: 0.03s 内存: 0.52MB" state="A" ratio="1"/>
    </subtask>
    <subtask score="10">
        <point note="时间: 0.02s 内存: 0.52MB" state="A" ratio="1"/>
    </subtask>
</task>
