<?xml version="1.0" encoding="UTF-8"?>
<task score="100" state="N" time="16.252">
    <subtask score="20">
        <point note="AC 时间: 0.12s 内存: 600.73MB" ratio="1" state="A"/>
    </subtask>
    <subtask score="20">
        <point note="AC 时间: 0.28s 内存: 600.76MB" ratio="1" state="A"/>
    </subtask>
    <subtask score="20">
        <point note="AC 时间: 1.73s 内存: 603.16MB" ratio="1" state="A"/>
    </subtask>
    <subtask score="20">
        <point note="AC 时间: 3.24s 内存: 603.28MB" ratio="1" state="A"/>
    </subtask>
    <subtask score="20">
        <point note="AC 时间: 10.87s 内存: 624.96MB" ratio="1" state="A"/>
    </subtask>
</task>
