<?xml version="1.0" encoding="UTF-8"?>
<task score="100" state="N" time="14.818">
    <subtask score="20">
        <point note="AC 时间: 0.11s 内存: 600.68MB" ratio="1" state="A"/>
    </subtask>
    <subtask score="20">
        <point note="AC 时间: 0.27s 内存: 600.77MB" ratio="1" state="A"/>
    </subtask>
    <subtask score="20">
        <point note="AC 时间: 1.65s 内存: 603.15MB" ratio="1" state="A"/>
    </subtask>
    <subtask score="20">
        <point note="AC 时间: 3.10s 内存: 603.28MB" ratio="1" state="A"/>
    </subtask>
    <subtask score="20">
        <point note="AC 时间: 9.69s 内存: 624.96MB" ratio="1" state="A"/>
    </subtask>
</task>
