<?xml version="1.0" encoding="UTF-8"?>
<task score="0" time="0" state="E">
    <subtask score="0">
        <point note="找不到标准输入文件: sssp1.in" ratio="0" state="E"/>
    </subtask>
    <subtask score="0">
        <point note="找不到标准输入文件: sssp2.in" ratio="0" state="E"/>
    </subtask>
    <subtask score="0">
        <point note="找不到标准输入文件: sssp3.in" ratio="0" state="E"/>
    </subtask>
    <subtask score="0">
        <point note="找不到标准输入文件: sssp4.in" ratio="0" state="E"/>
    </subtask>
    <subtask score="0">
        <point note="找不到标准输入文件: sssp5.in" ratio="0" state="E"/>
    </subtask>
</task>
