<?xml version="1.0" encoding="UTF-8"?>
<task state="N" maker="ccr-plus" score="100" time="1.448" version="1.1.0">
    <subtask score="5">
        <point ratio="1" note="时间: 0.00s 内存: 304.76MB" state="A"/>
    </subtask>
    <subtask score="5">
        <point ratio="1" note="时间: 0.00s 内存: 304.76MB" state="A"/>
    </subtask>
    <subtask score="5">
        <point ratio="1" note="时间: 0.00s 内存: 304.77MB" state="A"/>
    </subtask>
    <subtask score="5">
        <point ratio="1" note="时间: 0.01s 内存: 304.80MB" state="A"/>
    </subtask>
    <subtask score="5">
        <point ratio="1" note="时间: 0.01s 内存: 304.82MB" state="A"/>
    </subtask>
    <subtask score="5">
        <point ratio="1" note="时间: 0.00s 内存: 304.83MB" state="A"/>
    </subtask>
    <subtask score="5">
        <point ratio="1" note="时间: 0.00s 内存: 304.89MB" state="A"/>
    </subtask>
    <subtask score="5">
        <point ratio="1" note="时间: 0.00s 内存: 304.89MB" state="A"/>
    </subtask>
    <subtask score="5">
        <point ratio="1" note="时间: 0.00s 内存: 304.82MB" state="A"/>
    </subtask>
    <subtask score="5">
        <point ratio="1" note="时间: 0.00s 内存: 304.87MB" state="A"/>
    </subtask>
    <subtask score="5">
        <point ratio="1" note="时间: 0.00s 内存: 305.77MB" state="A"/>
    </subtask>
    <subtask score="5">
        <point ratio="1" note="时间: 0.01s 内存: 306.38MB" state="A"/>
    </subtask>
    <subtask score="5">
        <point ratio="1" note="时间: 0.03s 内存: 306.13MB" state="A"/>
    </subtask>
    <subtask score="5">
        <point ratio="1" note="时间: 0.08s 内存: 306.14MB" state="A"/>
    </subtask>
    <subtask score="5">
        <point ratio="1" note="时间: 0.09s 内存: 306.64MB" state="A"/>
    </subtask>
    <subtask score="5">
        <point ratio="1" note="时间: 0.17s 内存: 306.80MB" state="A"/>
    </subtask>
    <subtask score="5">
        <point ratio="1" note="时间: 0.41s 内存: 306.81MB" state="A"/>
    </subtask>
    <subtask score="5">
        <point ratio="1" note="时间: 0.16s 内存: 304.76MB" state="A"/>
    </subtask>
    <subtask score="5">
        <point ratio="1" note="时间: 0.03s 内存: 306.98MB" state="A"/>
    </subtask>
    <subtask score="5">
        <point ratio="1" note="时间: 0.44s 内存: 306.52MB" state="A"/>
    </subtask>
</task>
