<?xml version="1.0" encoding="UTF-8"?>
<task maker="ccr-plus" score="35" time="4.311" version="1.1.0" state="N">
    <subtask score="5">
        <point ratio="1" note="时间: 0.00s 内存: 0.77MB" state="A"/>
    </subtask>
    <subtask score="5">
        <point ratio="1" note="时间: 0.00s 内存: 0.77MB" state="A"/>
    </subtask>
    <subtask score="5">
        <point ratio="1" note="时间: 0.01s 内存: 0.77MB" state="A"/>
    </subtask>
    <subtask score="5">
        <point ratio="1" note="时间: 0.08s 内存: 0.77MB" state="A"/>
    </subtask>
    <subtask score="5">
        <point ratio="1" note="时间: 0.09s 内存: 0.77MB" state="A"/>
    </subtask>
    <subtask score="5">
        <point ratio="1" note="时间: 0.13s 内存: 0.77MB" state="A"/>
    </subtask>
    <subtask score="0">
        <point ratio="0" note="超过时间限制" state="T"/>
    </subtask>
    <subtask score="0">
        <point ratio="0" note="超过时间限制" state="T"/>
    </subtask>
    <subtask score="0">
        <point ratio="0" note="超过时间限制" state="T"/>
    </subtask>
    <subtask score="0">
        <point ratio="0" note="超过时间限制" state="T"/>
    </subtask>
    <subtask score="0">
        <point ratio="0" note="第1行 标准输出:&quot;133915&quot; 选手输出:&quot;-1&quot;" state="W"/>
    </subtask>
    <subtask score="0">
        <point ratio="0" note="第1行 标准输出:&quot;245164&quot; 选手输出:&quot;-1&quot;" state="W"/>
    </subtask>
    <subtask score="0">
        <point ratio="0" note="第1行 标准输出:&quot;2004489&quot; 选手输出:&quot;-1&quot;" state="W"/>
    </subtask>
    <subtask score="0">
        <point ratio="0" note="第1行 标准输出:&quot;18740695&quot; 选手输出:&quot;-1&quot;" state="W"/>
    </subtask>
    <subtask score="0">
        <point ratio="0" note="第1行 标准输出:&quot;13746286&quot; 选手输出:&quot;-1&quot;" state="W"/>
    </subtask>
    <subtask score="0">
        <point ratio="0" note="第1行 标准输出:&quot;118547619&quot; 选手输出:&quot;-1&quot;" state="W"/>
    </subtask>
    <subtask score="0">
        <point ratio="0" note="第1行 标准输出:&quot;1234255809&quot; 选手输出:&quot;-1&quot;" state="W"/>
    </subtask>
    <subtask score="0">
        <point ratio="0" note="第1行 标准输出:&quot;1249975000&quot; 选手输出:&quot;-1&quot;" state="W"/>
    </subtask>
    <subtask score="5">
        <point ratio="1" note="时间: 0.00s 内存: 0.77MB" state="A"/>
    </subtask>
    <subtask score="0">
        <point ratio="0" note="第1行 标准输出:&quot;1182604652&quot; 选手输出:&quot;-1&quot;" state="W"/>
    </subtask>
</task>
