<?xml version="1.0" encoding="UTF-8"?>
<task maker="ccr-plus" time="1.68" score="20" version="1.1.0" state="N">
    <subtask score="0">
        <point note="第1行 标准输出:&quot;839&quot; 选手输出:&quot;206&quot;" ratio="0" state="W"/>
    </subtask>
    <subtask score="0">
        <point note="第1行 标准输出:&quot;3138&quot; 选手输出:&quot;705&quot;" ratio="0" state="W"/>
    </subtask>
    <subtask score="0">
        <point note="第1行 标准输出:&quot;21798&quot; 选手输出:&quot;4631&quot;" ratio="0" state="W"/>
    </subtask>
    <subtask score="0">
        <point note="第1行 标准输出:&quot;53218&quot; 选手输出:&quot;8626&quot;" ratio="0" state="W"/>
    </subtask>
    <subtask score="0">
        <point note="第1行 标准输出:&quot;40323&quot; 选手输出:&quot;6284&quot;" ratio="0" state="W"/>
    </subtask>
    <subtask score="5">
        <point note="时间: 0.01s 内存: 1.20MB" ratio="1" state="A"/>
    </subtask>
    <subtask score="5">
        <point note="时间: 0.00s 内存: 1.17MB" ratio="1" state="A"/>
    </subtask>
    <subtask score="0">
        <point note="第1行 标准输出:&quot;1800&quot; 选手输出:&quot;4&quot;" ratio="0" state="W"/>
    </subtask>
    <subtask score="0">
        <point note="第1行 标准输出:&quot;360539&quot; 选手输出:&quot;47177&quot;" ratio="0" state="W"/>
    </subtask>
    <subtask score="0">
        <point note="第1行 标准输出:&quot;197459&quot; 选手输出:&quot;26290&quot;" ratio="0" state="W"/>
    </subtask>
    <subtask score="0">
        <point note="第1行 标准输出:&quot;133915&quot; 选手输出:&quot;19855&quot;" ratio="0" state="W"/>
    </subtask>
    <subtask score="0">
        <point note="第1行 标准输出:&quot;245164&quot; 选手输出:&quot;36537&quot;" ratio="0" state="W"/>
    </subtask>
    <subtask score="0">
        <point note="第1行 标准输出:&quot;2004489&quot; 选手输出:&quot;198574&quot;" ratio="0" state="W"/>
    </subtask>
    <subtask score="0">
        <point note="第1行 标准输出:&quot;18740695&quot; 选手输出:&quot;1484782&quot;" ratio="0" state="W"/>
    </subtask>
    <subtask score="0">
        <point note="第1行 标准输出:&quot;13746286&quot; 选手输出:&quot;1064096&quot;" ratio="0" state="W"/>
    </subtask>
    <subtask score="0">
        <point note="第1行 标准输出:&quot;118547619&quot; 选手输出:&quot;8751176&quot;" ratio="0" state="W"/>
    </subtask>
    <subtask score="0">
        <point note="第1行 标准输出:&quot;1234255809&quot; 选手输出:&quot;154351188&quot;" ratio="0" state="W"/>
    </subtask>
    <subtask score="5">
        <point note="时间: 0.00s 内存: 1.36MB" ratio="1" state="A"/>
    </subtask>
    <subtask score="5">
        <point note="时间: 0.23s 内存: 2.87MB" ratio="1" state="A"/>
    </subtask>
    <subtask score="0">
        <point note="第1行 标准输出:&quot;1182604652&quot; 选手输出:&quot;80690880&quot;" ratio="0" state="W"/>
    </subtask>
</task>
