<?xml version="1.0" encoding="UTF-8"?>
<task maker="ccr-plus" time="0" score="10" version="1.1.0" state="N">
    <subtask score="0">
        <point note="第1行 标准输出:&quot;839&quot; 选手输出:&quot;-1&quot;" ratio="0" state="W"/>
    </subtask>
    <subtask score="0">
        <point note="第1行 标准输出:&quot;3138&quot; 选手输出:&quot;-1&quot;" ratio="0" state="W"/>
    </subtask>
    <subtask score="0">
        <point note="第1行 标准输出:&quot;21798&quot; 选手输出:&quot;-1&quot;" ratio="0" state="W"/>
    </subtask>
    <subtask score="0">
        <point note="第1行 标准输出:&quot;53218&quot; 选手输出:&quot;-1&quot;" ratio="0" state="W"/>
    </subtask>
    <subtask score="0">
        <point note="第1行 标准输出:&quot;40323&quot; 选手输出:&quot;-1&quot;" ratio="0" state="W"/>
    </subtask>
    <subtask score="5">
        <point note="时间: 0.00s 内存: 0.27MB" ratio="1" state="A"/>
    </subtask>
    <subtask score="0">
        <point note="第1行 标准输出:&quot;0&quot; 选手输出:&quot;-1&quot;" ratio="0" state="W"/>
    </subtask>
    <subtask score="0">
        <point note="第1行 标准输出:&quot;1800&quot; 选手输出:&quot;-1&quot;" ratio="0" state="W"/>
    </subtask>
    <subtask score="0">
        <point note="第1行 标准输出:&quot;360539&quot; 选手输出:&quot;-1&quot;" ratio="0" state="W"/>
    </subtask>
    <subtask score="0">
        <point note="第1行 标准输出:&quot;197459&quot; 选手输出:&quot;-1&quot;" ratio="0" state="W"/>
    </subtask>
    <subtask score="0">
        <point note="第1行 标准输出:&quot;133915&quot; 选手输出:&quot;-1&quot;" ratio="0" state="W"/>
    </subtask>
    <subtask score="0">
        <point note="第1行 标准输出:&quot;245164&quot; 选手输出:&quot;-1&quot;" ratio="0" state="W"/>
    </subtask>
    <subtask score="0">
        <point note="第1行 标准输出:&quot;2004489&quot; 选手输出:&quot;-1&quot;" ratio="0" state="W"/>
    </subtask>
    <subtask score="0">
        <point note="第1行 标准输出:&quot;18740695&quot; 选手输出:&quot;-1&quot;" ratio="0" state="W"/>
    </subtask>
    <subtask score="0">
        <point note="第1行 标准输出:&quot;13746286&quot; 选手输出:&quot;-1&quot;" ratio="0" state="W"/>
    </subtask>
    <subtask score="0">
        <point note="第1行 标准输出:&quot;118547619&quot; 选手输出:&quot;-1&quot;" ratio="0" state="W"/>
    </subtask>
    <subtask score="0">
        <point note="第1行 标准输出:&quot;1234255809&quot; 选手输出:&quot;-1&quot;" ratio="0" state="W"/>
    </subtask>
    <subtask score="0">
        <point note="第1行 标准输出:&quot;1249975000&quot; 选手输出:&quot;-1&quot;" ratio="0" state="W"/>
    </subtask>
    <subtask score="5">
        <point note="时间: 0.00s 内存: 0.27MB" ratio="1" state="A"/>
    </subtask>
    <subtask score="0">
        <point note="第1行 标准输出:&quot;1182604652&quot; 选手输出:&quot;-1&quot;" ratio="0" state="W"/>
    </subtask>
</task>
