<?xml version="1.0" encoding="UTF-8"?>
<task score="10" version="1.1.0" state="N" time="0" maker="ccr-plus">
    <subtask score="5">
        <point ratio="1" state="A" note="时间: 0.00s 内存: 0.35MB"/>
    </subtask>
    <subtask score="5">
        <point ratio="1" state="A" note="时间: 0.00s 内存: 0.35MB"/>
    </subtask>
    <subtask score="0">
        <point ratio="0" state="R" note="运行时错误: 3221225477"/>
    </subtask>
    <subtask score="0">
        <point ratio="0" state="R" note="运行时错误: 3221225477"/>
    </subtask>
    <subtask score="0">
        <point ratio="0" state="R" note="运行时错误: 3221225477"/>
    </subtask>
    <subtask score="0">
        <point ratio="0" state="R" note="运行时错误: 3221225477"/>
    </subtask>
    <subtask score="0">
        <point ratio="0" state="R" note="运行时错误: 3221225477"/>
    </subtask>
    <subtask score="0">
        <point ratio="0" state="R" note="运行时错误: 3221225477"/>
    </subtask>
    <subtask score="0">
        <point ratio="0" state="R" note="运行时错误: 3221225477"/>
    </subtask>
    <subtask score="0">
        <point ratio="0" state="R" note="运行时错误: 3221225477"/>
    </subtask>
    <subtask score="0">
        <point ratio="0" state="R" note="运行时错误: 3221225477"/>
    </subtask>
    <subtask score="0">
        <point ratio="0" state="R" note="运行时错误: 3221225477"/>
    </subtask>
    <subtask score="0">
        <point ratio="0" state="R" note="运行时错误: 3221225477"/>
    </subtask>
    <subtask score="0">
        <point ratio="0" state="R" note="运行时错误: 3221225477"/>
    </subtask>
    <subtask score="0">
        <point ratio="0" state="R" note="运行时错误: 3221225477"/>
    </subtask>
    <subtask score="0">
        <point ratio="0" state="R" note="运行时错误: 3221225477"/>
    </subtask>
    <subtask score="0">
        <point ratio="0" state="R" note="运行时错误: 3221225477"/>
    </subtask>
    <subtask score="0">
        <point ratio="0" state="R" note="运行时错误: 3221225477"/>
    </subtask>
    <subtask score="0">
        <point ratio="0" state="R" note="运行时错误: 3221225477"/>
    </subtask>
    <subtask score="0">
        <point ratio="0" state="R" note="运行时错误: 3221225477"/>
    </subtask>
</task>
