<?xml version="1.0" encoding="UTF-8"?>
<task score="40" version="1.1.0" state="N" time="24.888" maker="ccr-plus">
    <subtask score="5">
        <point ratio="1" state="A" note="时间: 0.00s 内存: 7.19MB"/>
    </subtask>
    <subtask score="5">
        <point ratio="1" state="A" note="时间: 0.00s 内存: 7.19MB"/>
    </subtask>
    <subtask score="5">
        <point ratio="1" state="A" note="时间: 0.01s 内存: 7.19MB"/>
    </subtask>
    <subtask score="0">
        <point ratio="0" state="T" note="超过时间限制"/>
    </subtask>
    <subtask score="0">
        <point ratio="0" state="T" note="超过时间限制"/>
    </subtask>
    <subtask score="5">
        <point ratio="1" state="A" note="时间: 0.01s 内存: 7.19MB"/>
    </subtask>
    <subtask score="5">
        <point ratio="1" state="A" note="时间: 0.00s 内存: 7.20MB"/>
    </subtask>
    <subtask score="5">
        <point ratio="1" state="A" note="时间: 0.00s 内存: 7.21MB"/>
    </subtask>
    <subtask score="5">
        <point ratio="1" state="A" note="时间: 0.31s 内存: 7.20MB"/>
    </subtask>
    <subtask score="0">
        <point ratio="0" state="T" note="超过时间限制"/>
    </subtask>
    <subtask score="0">
        <point ratio="0" state="T" note="超过时间限制"/>
    </subtask>
    <subtask score="0">
        <point ratio="0" state="T" note="超过时间限制"/>
    </subtask>
    <subtask score="0">
        <point ratio="0" state="T" note="超过时间限制"/>
    </subtask>
    <subtask score="0">
        <point ratio="0" state="T" note="超过时间限制"/>
    </subtask>
    <subtask score="0">
        <point ratio="0" state="T" note="超过时间限制"/>
    </subtask>
    <subtask score="0">
        <point ratio="0" state="T" note="超过时间限制"/>
    </subtask>
    <subtask score="0">
        <point ratio="0" state="T" note="超过时间限制"/>
    </subtask>
    <subtask score="0">
        <point ratio="0" state="T" note="超过时间限制"/>
    </subtask>
    <subtask score="5">
        <point ratio="1" state="A" note="时间: 0.55s 内存: 7.20MB"/>
    </subtask>
    <subtask score="0">
        <point ratio="0" state="T" note="超过时间限制"/>
    </subtask>
</task>
