<?xml version="1.0" encoding="UTF-8"?>
<task score="45" version="1.1.0" state="N" time="16.973" maker="ccr-plus">
    <subtask score="5">
        <point ratio="1" state="A" note="时间: 0.00s 内存: 489.50MB"/>
    </subtask>
    <subtask score="5">
        <point ratio="1" state="A" note="时间: 0.00s 内存: 489.50MB"/>
    </subtask>
    <subtask score="5">
        <point ratio="1" state="A" note="时间: 0.01s 内存: 489.50MB"/>
    </subtask>
    <subtask score="5">
        <point ratio="1" state="A" note="时间: 0.27s 内存: 489.50MB"/>
    </subtask>
    <subtask score="5">
        <point ratio="1" state="A" note="时间: 0.20s 内存: 489.50MB"/>
    </subtask>
    <subtask score="5">
        <point ratio="1" state="A" note="时间: 0.00s 内存: 489.50MB"/>
    </subtask>
    <subtask score="5">
        <point ratio="1" state="A" note="时间: 1.93s 内存: 489.50MB"/>
    </subtask>
    <subtask score="5">
        <point ratio="1" state="A" note="时间: 1.92s 内存: 489.50MB"/>
    </subtask>
    <subtask score="5">
        <point ratio="1" state="A" note="时间: 0.64s 内存: 489.50MB"/>
    </subtask>
    <subtask score="0">
        <point ratio="0" state="T" note="超过时间限制"/>
    </subtask>
    <subtask score="0">
        <point ratio="0" state="T" note="超过时间限制"/>
    </subtask>
    <subtask score="0">
        <point ratio="0" state="T" note="超过时间限制"/>
    </subtask>
    <subtask score="0">
        <point ratio="0" state="T" note="超过时间限制"/>
    </subtask>
    <subtask score="0">
        <point ratio="0" state="T" note="超过时间限制"/>
    </subtask>
    <subtask score="0">
        <point ratio="0" state="T" note="超过时间限制"/>
    </subtask>
    <subtask score="0">
        <point ratio="0" state="R" note="运行时错误: 3221225477"/>
    </subtask>
    <subtask score="0">
        <point ratio="0" state="R" note="运行时错误: 3221225477"/>
    </subtask>
    <subtask score="0">
        <point ratio="0" state="R" note="运行时错误: 3221225477"/>
    </subtask>
    <subtask score="0">
        <point ratio="0" state="R" note="运行时错误: 3221225477"/>
    </subtask>
    <subtask score="0">
        <point ratio="0" state="R" note="运行时错误: 3221225477"/>
    </subtask>
</task>
