<?xml version="1.0" encoding="UTF-8"?>
<task score="25" version="1.1.0" state="N" time="0.917" maker="ccr-plus">
    <subtask score="0">
        <point ratio="0" state="W" note="第1行 标准输出:&quot;839&quot; 选手输出:&quot;887&quot;"/>
    </subtask>
    <subtask score="0">
        <point ratio="0" state="W" note="第1行 标准输出:&quot;3138&quot; 选手输出:&quot;3390&quot;"/>
    </subtask>
    <subtask score="0">
        <point ratio="0" state="W" note="第1行 标准输出:&quot;21798&quot; 选手输出:&quot;24210&quot;"/>
    </subtask>
    <subtask score="0">
        <point ratio="0" state="W" note="第1行 标准输出:&quot;53218&quot; 选手输出:&quot;63449&quot;"/>
    </subtask>
    <subtask score="5">
        <point ratio="1" state="A" note="时间: 0.01s 内存: 1.40MB"/>
    </subtask>
    <subtask score="0">
        <point ratio="0" state="W" note="第1行 标准输出:&quot;-1&quot; 选手输出:&quot;-124090&quot;"/>
    </subtask>
    <subtask score="5">
        <point ratio="1" state="A" note="时间: 0.05s 内存: 1.39MB"/>
    </subtask>
    <subtask score="5">
        <point ratio="1" state="A" note="时间: 0.05s 内存: 1.39MB"/>
    </subtask>
    <subtask score="0">
        <point ratio="0" state="W" note="第1行 标准输出:&quot;360539&quot; 选手输出:&quot;404822&quot;"/>
    </subtask>
    <subtask score="0">
        <point ratio="0" state="W" note="第1行 标准输出:&quot;197459&quot; 选手输出:&quot;243748&quot;"/>
    </subtask>
    <subtask score="5">
        <point ratio="1" state="A" note="时间: 0.22s 内存: 1.39MB"/>
    </subtask>
    <subtask score="5">
        <point ratio="1" state="A" note="时间: 0.53s 内存: 1.39MB"/>
    </subtask>
    <subtask score="0">
        <point ratio="0" state="R" note="运行时错误: 3221225477"/>
    </subtask>
    <subtask score="0">
        <point ratio="0" state="R" note="运行时错误: 3221225477"/>
    </subtask>
    <subtask score="0">
        <point ratio="0" state="R" note="运行时错误: 3221225477"/>
    </subtask>
    <subtask score="0">
        <point ratio="0" state="R" note="运行时错误: 3221225477"/>
    </subtask>
    <subtask score="0">
        <point ratio="0" state="R" note="运行时错误: 3221225477"/>
    </subtask>
    <subtask score="0">
        <point ratio="0" state="R" note="运行时错误: 3221225477"/>
    </subtask>
    <subtask score="0">
        <point ratio="0" state="R" note="运行时错误: 3221225477"/>
    </subtask>
    <subtask score="0">
        <point ratio="0" state="R" note="运行时错误: 3221225477"/>
    </subtask>
</task>
