<?xml version="1.0" encoding="UTF-8"?>
<task score="20" version="1.1.0" state="N" time="1.742" maker="ccr-plus">
    <subtask score="0">
        <point ratio="0" state="W" note="第1行 标准输出:&quot;839&quot; 选手输出:&quot;323&quot;"/>
    </subtask>
    <subtask score="0">
        <point ratio="0" state="W" note="第1行 标准输出:&quot;3138&quot; 选手输出:&quot;-3356&quot;"/>
    </subtask>
    <subtask score="0">
        <point ratio="0" state="W" note="第1行 标准输出:&quot;21798&quot; 选手输出:&quot;-13017&quot;"/>
    </subtask>
    <subtask score="0">
        <point ratio="0" state="W" note="第1行 标准输出:&quot;53218&quot; 选手输出:&quot;-86655702&quot;"/>
    </subtask>
    <subtask score="0">
        <point ratio="0" state="W" note="第1行 标准输出:&quot;40323&quot; 选手输出:&quot;-11995290193&quot;"/>
    </subtask>
    <subtask score="0">
        <point ratio="0" state="W" note="第1行 标准输出:&quot;-1&quot; 选手输出:&quot;125250&quot;"/>
    </subtask>
    <subtask score="5">
        <point ratio="1" state="A" note="时间: 0.00s 内存: 38.49MB"/>
    </subtask>
    <subtask score="5">
        <point ratio="1" state="A" note="时间: 0.00s 内存: 38.50MB"/>
    </subtask>
    <subtask score="0">
        <point ratio="0" state="W" note="第1行 标准输出:&quot;360539&quot; 选手输出:&quot;-1404876&quot;"/>
    </subtask>
    <subtask score="0">
        <point ratio="0" state="W" note="第1行 标准输出:&quot;197459&quot; 选手输出:&quot;-7673313946&quot;"/>
    </subtask>
    <subtask score="0">
        <point ratio="0" state="W" note="第1行 标准输出:&quot;133915&quot; 选手输出:&quot;24933419260&quot;"/>
    </subtask>
    <subtask score="0">
        <point ratio="0" state="W" note="第1行 标准输出:&quot;245164&quot; 选手输出:&quot;24441743478&quot;"/>
    </subtask>
    <subtask score="0">
        <point ratio="0" state="W" note="第1行 标准输出:&quot;2004489&quot; 选手输出:&quot;31400605552&quot;"/>
    </subtask>
    <subtask score="0">
        <point ratio="0" state="W" note="第1行 标准输出:&quot;18740695&quot; 选手输出:&quot;-4253610877…&quot;"/>
    </subtask>
    <subtask score="0">
        <point ratio="0" state="W" note="第1行 标准输出:&quot;13746286&quot; 选手输出:&quot;-3021409852…&quot;"/>
    </subtask>
    <subtask score="0">
        <point ratio="0" state="W" note="第1行 标准输出:&quot;118547619&quot; 选手输出:&quot;-5805125648…&quot;"/>
    </subtask>
    <subtask score="0">
        <point ratio="0" state="W" note="第1行 标准输出:&quot;1234255809&quot; 选手输出:&quot;1231315564&quot;"/>
    </subtask>
    <subtask score="5">
        <point ratio="1" state="A" note="时间: 0.01s 内存: 38.49MB"/>
    </subtask>
    <subtask score="5">
        <point ratio="1" state="A" note="时间: 0.22s 内存: 38.48MB"/>
    </subtask>
    <subtask score="0">
        <point ratio="0" state="W" note="第1行 标准输出:&quot;1182604652&quot; 选手输出:&quot;-33969691000&quot;"/>
    </subtask>
</task>
