<?xml version="1.0" encoding="UTF-8"?>
<task score="70" version="1.1.0" state="N" time="15.506" maker="ccr-plus">
    <subtask score="5">
        <point ratio="1" state="A" note="时间: 0.00s 内存: 5.24MB"/>
    </subtask>
    <subtask score="5">
        <point ratio="1" state="A" note="时间: 0.00s 内存: 5.23MB"/>
    </subtask>
    <subtask score="5">
        <point ratio="1" state="A" note="时间: 0.00s 内存: 5.23MB"/>
    </subtask>
    <subtask score="5">
        <point ratio="1" state="A" note="时间: 0.01s 内存: 5.23MB"/>
    </subtask>
    <subtask score="5">
        <point ratio="1" state="A" note="时间: 0.01s 内存: 5.23MB"/>
    </subtask>
    <subtask score="5">
        <point ratio="1" state="A" note="时间: 0.01s 内存: 5.24MB"/>
    </subtask>
    <subtask score="5">
        <point ratio="1" state="A" note="时间: 0.00s 内存: 5.23MB"/>
    </subtask>
    <subtask score="5">
        <point ratio="1" state="A" note="时间: 0.01s 内存: 5.23MB"/>
    </subtask>
    <subtask score="5">
        <point ratio="1" state="A" note="时间: 0.03s 内存: 5.23MB"/>
    </subtask>
    <subtask score="5">
        <point ratio="1" state="A" note="时间: 0.05s 内存: 5.24MB"/>
    </subtask>
    <subtask score="5">
        <point ratio="1" state="A" note="时间: 1.39s 内存: 5.23MB"/>
    </subtask>
    <subtask score="0">
        <point ratio="0" state="T" note="超过时间限制"/>
    </subtask>
    <subtask score="0">
        <point ratio="0" state="T" note="超过时间限制"/>
    </subtask>
    <subtask score="0">
        <point ratio="0" state="T" note="超过时间限制"/>
    </subtask>
    <subtask score="0">
        <point ratio="0" state="T" note="超过时间限制"/>
    </subtask>
    <subtask score="0">
        <point ratio="0" state="T" note="超过时间限制"/>
    </subtask>
    <subtask score="5">
        <point ratio="1" state="A" note="时间: 1.44s 内存: 5.23MB"/>
    </subtask>
    <subtask score="5">
        <point ratio="1" state="A" note="时间: 0.00s 内存: 5.24MB"/>
    </subtask>
    <subtask score="5">
        <point ratio="1" state="A" note="时间: 0.55s 内存: 5.41MB"/>
    </subtask>
    <subtask score="0">
        <point ratio="0" state="T" note="超过时间限制"/>
    </subtask>
</task>
