<?xml version="1.0" encoding="UTF-8"?>
<task state="N" maker="ccr-plus" version="1.1.0" time="10.404" score="40">
    <subtask score="10">
        <point ratio="1" note="时间: 0.00s 内存: 48.57MB" state="A"/>
    </subtask>
    <subtask score="10">
        <point ratio="1" note="时间: 0.00s 内存: 48.57MB" state="A"/>
    </subtask>
    <subtask score="10">
        <point ratio="1" note="时间: 0.06s 内存: 48.66MB" state="A"/>
    </subtask>
    <subtask score="0">
        <point ratio="0" note="答案错误" state="W"/>
    </subtask>
    <subtask score="0">
        <point ratio="0" note="超过时间限制" state="T"/>
    </subtask>
    <subtask score="0">
        <point ratio="0" note="超过时间限制" state="T"/>
    </subtask>
    <subtask score="0">
        <point ratio="0" note="超过时间限制" state="T"/>
    </subtask>
    <subtask score="10">
        <point ratio="1" note="时间: 0.22s 内存: 48.57MB" state="A"/>
    </subtask>
    <subtask score="0">
        <point ratio="0" note="超过时间限制" state="T"/>
    </subtask>
    <subtask score="0">
        <point ratio="0" note="超过时间限制" state="T"/>
    </subtask>
</task>
