<?xml version="1.0" encoding="UTF-8"?>
<task maker="ccr-plus" time="3.693" score="100" version="1.1.0" state="N">
    <subtask score="10">
        <point note="时间: 0.00s 内存: 12.26MB" ratio="1" state="A"/>
    </subtask>
    <subtask score="10">
        <point note="时间: 0.01s 内存: 12.32MB" ratio="1" state="A"/>
    </subtask>
    <subtask score="10">
        <point note="时间: 0.01s 内存: 13.77MB" ratio="1" state="A"/>
    </subtask>
    <subtask score="10">
        <point note="时间: 0.06s 内存: 16.89MB" ratio="1" state="A"/>
    </subtask>
    <subtask score="10">
        <point note="时间: 0.61s 内存: 36.71MB" ratio="1" state="A"/>
    </subtask>
    <subtask score="10">
        <point note="时间: 0.59s 内存: 38.78MB" ratio="1" state="A"/>
    </subtask>
    <subtask score="10">
        <point note="时间: 0.86s 内存: 57.82MB" ratio="1" state="A"/>
    </subtask>
    <subtask score="10">
        <point note="时间: 0.19s 内存: 17.72MB" ratio="1" state="A"/>
    </subtask>
    <subtask score="10">
        <point note="时间: 0.51s 内存: 53.15MB" ratio="1" state="A"/>
    </subtask>
    <subtask score="10">
        <point note="时间: 0.84s 内存: 57.54MB" ratio="1" state="A"/>
    </subtask>
</task>
