<?xml version="1.0" encoding="UTF-8"?>
<task state="N" maker="ccr-plus" version="1.1.0" time="10.263" score="50">
    <subtask score="10">
        <point ratio="1" note="时间: 0.00s 内存: 471.40MB" state="A"/>
    </subtask>
    <subtask score="10">
        <point ratio="1" note="时间: 0.01s 内存: 471.40MB" state="A"/>
    </subtask>
    <subtask score="10">
        <point ratio="1" note="时间: 0.05s 内存: 471.40MB" state="A"/>
    </subtask>
    <subtask score="10">
        <point ratio="1" note="时间: 0.08s 内存: 471.41MB" state="A"/>
    </subtask>
    <subtask score="0">
        <point ratio="0" note="超过时间限制" state="T"/>
    </subtask>
    <subtask score="0">
        <point ratio="0" note="超过时间限制" state="T"/>
    </subtask>
    <subtask score="0">
        <point ratio="0" note="超过时间限制" state="T"/>
    </subtask>
    <subtask score="10">
        <point ratio="1" note="时间: 0.12s 内存: 471.40MB" state="A"/>
    </subtask>
    <subtask score="0">
        <point ratio="0" note="超过时间限制" state="T"/>
    </subtask>
    <subtask score="0">
        <point ratio="0" note="超过时间限制" state="T"/>
    </subtask>
</task>
