<?xml version="1.0" encoding="UTF-8"?>
<task state="N" maker="ccr-plus" version="1.1.0" time="8.731" score="0">
    <subtask score="0">
        <point ratio="0" note="答案错误" state="W"/>
    </subtask>
    <subtask score="0">
        <point ratio="0" note="答案错误" state="W"/>
    </subtask>
    <subtask score="0">
        <point ratio="0" note="答案错误" state="W"/>
    </subtask>
    <subtask score="0">
        <point ratio="0" note="答案错误" state="W"/>
    </subtask>
    <subtask score="0">
        <point ratio="0" note="运行时错误: 3221225477" state="R"/>
    </subtask>
    <subtask score="0">
        <point ratio="0" note="超过时间限制" state="T"/>
    </subtask>
    <subtask score="0">
        <point ratio="0" note="超过时间限制" state="T"/>
    </subtask>
    <subtask score="0">
        <point ratio="0" note="超过时间限制" state="T"/>
    </subtask>
    <subtask score="0">
        <point ratio="0" note="超过时间限制" state="T"/>
    </subtask>
    <subtask score="0">
        <point ratio="0" note="运行时错误: 3221225477" state="R"/>
    </subtask>
</task>
