<?xml version="1.0" encoding="UTF-8"?>
<task state="N" maker="ccr-plus" version="1.1.0" time="10.481" score="15">
    <subtask score="3">
        <point ratio="0.3" note="时间: 0.03s 内存: 139.01MB 部分正确" state="P"/>
    </subtask>
    <subtask score="3">
        <point ratio="0.3" note="时间: 0.01s 内存: 139.02MB 部分正确" state="P"/>
    </subtask>
    <subtask score="3">
        <point ratio="0.3" note="时间: 0.09s 内存: 139.01MB 部分正确" state="P"/>
    </subtask>
    <subtask score="3">
        <point ratio="0.3" note="时间: 0.12s 内存: 139.01MB 部分正确" state="P"/>
    </subtask>
    <subtask score="0">
        <point ratio="0" note="超过时间限制" state="T"/>
    </subtask>
    <subtask score="0">
        <point ratio="0" note="超过时间限制" state="T"/>
    </subtask>
    <subtask score="0">
        <point ratio="0" note="超过时间限制" state="T"/>
    </subtask>
    <subtask score="3">
        <point ratio="0.3" note="时间: 0.22s 内存: 139.01MB 部分正确" state="P"/>
    </subtask>
    <subtask score="0">
        <point ratio="0" note="超过时间限制" state="T"/>
    </subtask>
    <subtask score="0">
        <point ratio="0" note="超过时间限制" state="T"/>
    </subtask>
</task>
