<?xml version="1.0" encoding="UTF-8"?>
<task state="N" maker="ccr-plus" version="1.1.0" time="0" score="10">
    <subtask score="0">
        <point ratio="0" note="答案错误" state="W"/>
    </subtask>
    <subtask score="0">
        <point ratio="0" note="答案错误" state="W"/>
    </subtask>
    <subtask score="0">
        <point ratio="0" note="答案错误" state="W"/>
    </subtask>
    <subtask score="10">
        <point ratio="1" note="时间: 0.00s 内存: 0.26MB" state="A"/>
    </subtask>
    <subtask score="0">
        <point ratio="0" note="答案错误" state="W"/>
    </subtask>
    <subtask score="0">
        <point ratio="0" note="答案错误" state="W"/>
    </subtask>
    <subtask score="0">
        <point ratio="0" note="答案错误" state="W"/>
    </subtask>
    <subtask score="0">
        <point ratio="0" note="答案错误" state="W"/>
    </subtask>
    <subtask score="0">
        <point ratio="0" note="答案错误" state="W"/>
    </subtask>
    <subtask score="0">
        <point ratio="0" note="答案错误" state="W"/>
    </subtask>
</task>
