<?xml version="1.0" encoding="UTF-8"?>
<task maker="ccr-plus" score="100" time="0.325" version="1.1.0" state="N">
    <subtask score="7">
        <point ratio="1" note="时间: 0.00s 内存: 5.07MB" state="A"/>
    </subtask>
    <subtask score="7">
        <point ratio="1" note="时间: 0.00s 内存: 5.07MB" state="A"/>
    </subtask>
    <subtask score="7">
        <point ratio="1" note="时间: 0.00s 内存: 5.07MB" state="A"/>
    </subtask>
    <subtask score="7">
        <point ratio="1" note="时间: 0.00s 内存: 5.07MB" state="A"/>
    </subtask>
    <subtask score="7">
        <point ratio="1" note="时间: 0.00s 内存: 5.07MB" state="A"/>
    </subtask>
    <subtask score="7">
        <point ratio="1" note="时间: 0.01s 内存: 5.08MB" state="A"/>
    </subtask>
    <subtask score="7">
        <point ratio="1" note="时间: 0.00s 内存: 5.07MB" state="A"/>
    </subtask>
    <subtask score="7">
        <point ratio="1" note="时间: 0.00s 内存: 5.08MB" state="A"/>
    </subtask>
    <subtask score="7">
        <point ratio="1" note="时间: 0.00s 内存: 5.07MB" state="A"/>
    </subtask>
    <subtask score="7">
        <point ratio="1" note="时间: 0.00s 内存: 5.08MB" state="A"/>
    </subtask>
    <subtask score="7">
        <point ratio="1" note="时间: 0.01s 内存: 5.08MB" state="A"/>
    </subtask>
    <subtask score="7">
        <point ratio="1" note="时间: 0.01s 内存: 5.08MB" state="A"/>
    </subtask>
    <subtask score="8">
        <point ratio="1" note="时间: 0.01s 内存: 5.07MB" state="A"/>
    </subtask>
    <subtask score="8">
        <point ratio="1" note="时间: 0.27s 内存: 5.07MB" state="A"/>
    </subtask>
</task>
