<?xml version="1.0" encoding="UTF-8"?>
<task score="0" version="1.1.0" state="N" time="0.03" maker="ccr-plus">
    <subtask score="0">
        <point ratio="0" state="W" note="第1行 标准输出:&quot;141236865&quot; 选手输出:&quot;31367&quot;"/>
    </subtask>
    <subtask score="0">
        <point ratio="0" state="W" note="第1行 标准输出:&quot;989632222&quot; 选手输出:&quot;31367&quot;"/>
    </subtask>
    <subtask score="0">
        <point ratio="0" state="W" note="第1行 标准输出:&quot;518285939&quot; 选手输出:&quot;31370&quot;"/>
    </subtask>
    <subtask score="0">
        <point ratio="0" state="W" note="第1行 标准输出:&quot;277153505&quot; 选手输出:&quot;31370&quot;"/>
    </subtask>
    <subtask score="0">
        <point ratio="0" state="W" note="第1行 标准输出:&quot;603062546&quot; 选手输出:&quot;31370&quot;"/>
    </subtask>
    <subtask score="0">
        <point ratio="0" state="W" note="第1行 标准输出:&quot;17883428&quot; 选手输出:&quot;31370&quot;"/>
    </subtask>
    <subtask score="0">
        <point ratio="0" state="W" note="第1行 标准输出:&quot;415292598&quot; 选手输出:&quot;31370&quot;"/>
    </subtask>
    <subtask score="0">
        <point ratio="0" state="W" note="第1行 标准输出:&quot;194820143&quot; 选手输出:&quot;31370&quot;"/>
    </subtask>
    <subtask score="0">
        <point ratio="0" state="W" note="第1行 标准输出:&quot;826240803&quot; 选手输出:&quot;31374&quot;"/>
    </subtask>
    <subtask score="0">
        <point ratio="0" state="W" note="第1行 标准输出:&quot;444055&quot; 选手输出:&quot;31374&quot;"/>
    </subtask>
    <subtask score="0">
        <point ratio="0" state="W" note="第1行 标准输出:&quot;788191967&quot; 选手输出:&quot;31374&quot;"/>
    </subtask>
    <subtask score="0">
        <point ratio="0" state="W" note="第1行 标准输出:&quot;199152679&quot; 选手输出:&quot;31374&quot;"/>
    </subtask>
    <subtask score="0">
        <point ratio="0" state="W" note="第1行 标准输出:&quot;88773585&quot; 选手输出:&quot;31374&quot;"/>
    </subtask>
    <subtask score="0">
        <point ratio="0" state="W" note="第1行 标准输出:&quot;999713078&quot; 选手输出:&quot;31374&quot;"/>
    </subtask>
</task>
