<?xml version="1.0" encoding="UTF-8"?>
<task score="0" version="1.1.0" state="N" time="0.3260000000000001" maker="ccr-plus">
    <subtask score="0">
        <point ratio="0" state="W" note="第1行 标准输出:&quot;141236865&quot; 选手输出:&quot;1&quot;"/>
    </subtask>
    <subtask score="0">
        <point ratio="0" state="W" note="第1行 标准输出:&quot;989632222&quot; 选手输出:&quot;1&quot;"/>
    </subtask>
    <subtask score="0">
        <point ratio="0" state="W" note="第1行 标准输出:&quot;518285939&quot; 选手输出:&quot;1&quot;"/>
    </subtask>
    <subtask score="0">
        <point ratio="0" state="W" note="第1行 标准输出:&quot;277153505&quot; 选手输出:&quot;1&quot;"/>
    </subtask>
    <subtask score="0">
        <point ratio="0" state="W" note="选手输出为空"/>
    </subtask>
    <subtask score="0">
        <point ratio="0" state="W" note="选手输出为空"/>
    </subtask>
    <subtask score="0">
        <point ratio="0" state="W" note="第1行 标准输出:&quot;415292598&quot; 选手输出:&quot;2&quot;"/>
    </subtask>
    <subtask score="0">
        <point ratio="0" state="W" note="第1行 标准输出:&quot;194820143&quot; 选手输出:&quot;30000000000…&quot;"/>
    </subtask>
    <subtask score="0">
        <point ratio="0" state="W" note="选手输出为空"/>
    </subtask>
    <subtask score="0">
        <point ratio="0" state="W" note="第1行 标准输出:&quot;444055&quot; 选手输出:&quot;1&quot;"/>
    </subtask>
    <subtask score="0">
        <point ratio="0" state="W" note="第1行 标准输出:&quot;788191967&quot; 选手输出:&quot;2&quot;"/>
    </subtask>
    <subtask score="0">
        <point ratio="0" state="W" note="选手输出为空"/>
    </subtask>
    <subtask score="0">
        <point ratio="0" state="W" note="第1行 标准输出:&quot;88773585&quot; 选手输出:&quot;13000000000…&quot;"/>
    </subtask>
    <subtask score="0">
        <point ratio="0" state="W" note="选手输出为空"/>
    </subtask>
</task>
