<?xml version="1.0" encoding="UTF-8"?>
<task score="100" version="1.1.0" state="N" time="0.571" maker="ccr-plus">
    <subtask score="7">
        <point ratio="1" state="A" note="时间: 0.01s 内存: 5.00MB"/>
    </subtask>
    <subtask score="7">
        <point ratio="1" state="A" note="时间: 0.01s 内存: 5.00MB"/>
    </subtask>
    <subtask score="7">
        <point ratio="1" state="A" note="时间: 0.01s 内存: 5.00MB"/>
    </subtask>
    <subtask score="7">
        <point ratio="1" state="A" note="时间: 0.00s 内存: 4.99MB"/>
    </subtask>
    <subtask score="7">
        <point ratio="1" state="A" note="时间: 0.01s 内存: 4.99MB"/>
    </subtask>
    <subtask score="7">
        <point ratio="1" state="A" note="时间: 0.01s 内存: 4.91MB"/>
    </subtask>
    <subtask score="7">
        <point ratio="1" state="A" note="时间: 0.01s 内存: 4.99MB"/>
    </subtask>
    <subtask score="7">
        <point ratio="1" state="A" note="时间: 0.01s 内存: 5.00MB"/>
    </subtask>
    <subtask score="7">
        <point ratio="1" state="A" note="时间: 0.00s 内存: 4.99MB"/>
    </subtask>
    <subtask score="7">
        <point ratio="1" state="A" note="时间: 0.00s 内存: 4.99MB"/>
    </subtask>
    <subtask score="7">
        <point ratio="1" state="A" note="时间: 0.01s 内存: 4.99MB"/>
    </subtask>
    <subtask score="7">
        <point ratio="1" state="A" note="时间: 0.00s 内存: 5.00MB"/>
    </subtask>
    <subtask score="8">
        <point ratio="1" state="A" note="时间: 0.01s 内存: 4.99MB"/>
    </subtask>
    <subtask score="8">
        <point ratio="1" state="A" note="时间: 0.44s 内存: 5.00MB"/>
    </subtask>
</task>
