<?xml version="1.0" encoding="UTF-8"?>
<task score="0" version="1.1.0" state="N" time="0" maker="ccr-plus">
    <subtask score="0">
        <point ratio="0" state="R" note="运行时错误: 233"/>
    </subtask>
    <subtask score="0">
        <point ratio="0" state="R" note="运行时错误: 233"/>
    </subtask>
    <subtask score="0">
        <point ratio="0" state="R" note="运行时错误: 233"/>
    </subtask>
    <subtask score="0">
        <point ratio="0" state="R" note="运行时错误: 233"/>
    </subtask>
    <subtask score="0">
        <point ratio="0" state="R" note="运行时错误: 233"/>
    </subtask>
    <subtask score="0">
        <point ratio="0" state="R" note="运行时错误: 233"/>
    </subtask>
    <subtask score="0">
        <point ratio="0" state="R" note="运行时错误: 233"/>
    </subtask>
    <subtask score="0">
        <point ratio="0" state="R" note="运行时错误: 233"/>
    </subtask>
    <subtask score="0">
        <point ratio="0" state="R" note="运行时错误: 233"/>
    </subtask>
    <subtask score="0">
        <point ratio="0" state="R" note="运行时错误: 233"/>
    </subtask>
    <subtask score="0">
        <point ratio="0" state="R" note="运行时错误: 233"/>
    </subtask>
    <subtask score="0">
        <point ratio="0" state="R" note="运行时错误: 233"/>
    </subtask>
    <subtask score="0">
        <point ratio="0" state="R" note="运行时错误: 233"/>
    </subtask>
    <subtask score="0">
        <point ratio="0" state="R" note="运行时错误: 233"/>
    </subtask>
</task>
