1736159550
1329977988
126334026
1447787071
909327330
97180020
1400347817
930151620
1645001910
1505555358
1720884486
838524744
1554829758
1568626590
1882997262
723297006
1835201094
1248069114
1545467622
1370217480
626116986
863513892
1447146000
1683435942
506724390
1442658503
1020390210
1146724236
584468406
1267505118
810759024
1641552702
1698218262
306811206
1181431386
1570104822
316529208
730238436
1402912101
1800709014
971800200
1405476385
556702686
1749463638
1182819672
137440314
281822058
559479258
495618102
1538076462
713579004
335965212
1761289494
1669146366
1791839622
530325252
776051874
680260140
1848505182
633058416
974576772
1788883158
587244978
1436247793
769110444
1128676518
1809578406
365119218
1191149388
1707580398
1576510494
831583314
460910952
1501120662
1573061286
1883490006
1868707686
1586365374
179088894
1286941122
1836679326
497006388
1540540182
1196702532
1640567214
1264728546
1662740694
9718002
1438812077
1488802062
106898022
1335531132
973188486
1857374574
1674073806
939869622
1452274568
1446504929
1584887142
279045486
1386244255
894056184
631670130
1704131190
1555815246
43036866
1777550046
1534134510
1558278966
1498164198
1595234766
608069268
1732710342
1374704977
1631205078
1408681740
1013448780
527548680
1572568542
377613792
1338307704
1765724190
1311930270
959305626
490064958
796876164
1396501391
1812534870
1469585046
1293882552
1465095988
1401629959
1849490670
1758333030
408156084
1513439262
805205880
1267505118
260997768
156876318
306811206
478958670
530325252
1626770382
1823867982
1472541510
1679493990
563644116
1848505182
34707150
1551380550
934316478
1579959702
1456762065
1752912846
1174489956
1495700478
633058416
1729753878
1749463638
1481903646
1848505182
1603611414
1193925960
1850968902
1854418110
199913184
1749463638
1852939878
1818447798
1843577742
254056338
730238436
1724826438
823253598
946811052
1087027938
1411246024
1339695990
1225856538
913492188
435921804
448416378
980129916
1747492662
1571090310
1772622606
1594249278
1517873958
1524772374
76355730
111062880
1869693174
827418456
48590010
1173101670
1579959702
692754714
1859838294
309587778
695531286
1542018414
233232048
422038944
118004310
1856389086
390108366
340130070
1105075656
953752482
1833230118
935704764
812147310
1370217480
1822389750
777440160
1112017086
696919572
559479258
213796044
739956438
1858852806
788546448
1782477486
174924036
1366073424
1678015758
1688856126
1137006234
621952128
595574694
309587778
1494714990
